<?xml version="1.0" encoding="UTF-8" standalone="no"?>
<!-- Created with Inkscape (http://www.inkscape.org/) -->

<svg
   xmlns:dc="http://purl.org/dc/elements/1.1/"
   xmlns:cc="http://creativecommons.org/ns#"
   xmlns:rdf="http://www.w3.org/1999/02/22-rdf-syntax-ns#"
   xmlns:svg="http://www.w3.org/2000/svg"
   xmlns="http://www.w3.org/2000/svg"
   xmlns:xlink="http://www.w3.org/1999/xlink"
   xmlns:sodipodi="http://sodipodi.sourceforge.net/DTD/sodipodi-0.dtd"
   xmlns:inkscape="http://www.inkscape.org/namespaces/inkscape"
   width="64px"
   height="64px"
   id="svg25879"
   sodipodi:version="0.32"
   inkscape:version="0.48.4 r9939"
   sodipodi:docname="Keyboard2.svg"
   inkscape:export-filename="C:\Marek\Dokumenty\Visual Studio 2013\Projects\Visual C#\ProGammaX2\Resources\Inkscape\Profiles_TabPageIcons\Keyboard5.png"
   inkscape:export-xdpi="90"
   inkscape:export-ydpi="90"
   version="1.1">
  <defs
     id="defs25881">
    <linearGradient
       inkscape:collect="always"
       id="linearGradient3940">
      <stop
         style="stop-color:#a0a0a0;stop-opacity:1;"
         offset="0"
         id="stop3942" />
      <stop
         style="stop-color:#a0a0a0;stop-opacity:0;"
         offset="1"
         id="stop3944" />
    </linearGradient>
    <linearGradient
       inkscape:collect="always"
       id="linearGradient3932">
      <stop
         style="stop-color:#a0a0a0;stop-opacity:1;"
         offset="0"
         id="stop3934" />
      <stop
         style="stop-color:#a0a0a0;stop-opacity:0;"
         offset="1"
         id="stop3936" />
    </linearGradient>
    <linearGradient
       inkscape:collect="always"
       id="linearGradient3924">
      <stop
         style="stop-color:#a0a0a0;stop-opacity:1;"
         offset="0"
         id="stop3926" />
      <stop
         style="stop-color:#a0a0a0;stop-opacity:0;"
         offset="1"
         id="stop3928" />
    </linearGradient>
    <linearGradient
       inkscape:collect="always"
       id="linearGradient3916">
      <stop
         style="stop-color:#a0a0a0;stop-opacity:1;"
         offset="0"
         id="stop3918" />
      <stop
         style="stop-color:#a0a0a0;stop-opacity:0;"
         offset="1"
         id="stop3920" />
    </linearGradient>
    <linearGradient
       inkscape:collect="always"
       id="linearGradient3908">
      <stop
         style="stop-color:#a0a0a0;stop-opacity:1;"
         offset="0"
         id="stop3910" />
      <stop
         style="stop-color:#a0a0a0;stop-opacity:0;"
         offset="1"
         id="stop3912" />
    </linearGradient>
    <linearGradient
       inkscape:collect="always"
       id="linearGradient3900">
      <stop
         style="stop-color:#a0a0a0;stop-opacity:1;"
         offset="0"
         id="stop3902" />
      <stop
         style="stop-color:#a0a0a0;stop-opacity:0;"
         offset="1"
         id="stop3904" />
    </linearGradient>
    <linearGradient
       inkscape:collect="always"
       id="linearGradient3892">
      <stop
         style="stop-color:#a0a0a0;stop-opacity:1;"
         offset="0"
         id="stop3894" />
      <stop
         style="stop-color:#a0a0a0;stop-opacity:0;"
         offset="1"
         id="stop3896" />
    </linearGradient>
    <linearGradient
       inkscape:collect="always"
       id="linearGradient3884">
      <stop
         style="stop-color:#a0a0a0;stop-opacity:1;"
         offset="0"
         id="stop3886" />
      <stop
         style="stop-color:#a0a0a0;stop-opacity:0;"
         offset="1"
         id="stop3888" />
    </linearGradient>
    <linearGradient
       inkscape:collect="always"
       id="linearGradient3876">
      <stop
         style="stop-color:#a0a0a0;stop-opacity:1;"
         offset="0"
         id="stop3878" />
      <stop
         style="stop-color:#a0a0a0;stop-opacity:0;"
         offset="1"
         id="stop3880" />
    </linearGradient>
    <linearGradient
       inkscape:collect="always"
       id="linearGradient3868">
      <stop
         style="stop-color:#a0a0a0;stop-opacity:1;"
         offset="0"
         id="stop3870" />
      <stop
         style="stop-color:#a0a0a0;stop-opacity:0;"
         offset="1"
         id="stop3872" />
    </linearGradient>
    <linearGradient
       inkscape:collect="always"
       id="linearGradient3860">
      <stop
         style="stop-color:#a0a0a0;stop-opacity:1;"
         offset="0"
         id="stop3862" />
      <stop
         style="stop-color:#a0a0a0;stop-opacity:0;"
         offset="1"
         id="stop3864" />
    </linearGradient>
    <linearGradient
       inkscape:collect="always"
       id="linearGradient3852">
      <stop
         style="stop-color:#a0a0a0;stop-opacity:1;"
         offset="0"
         id="stop3854" />
      <stop
         style="stop-color:#a0a0a0;stop-opacity:0;"
         offset="1"
         id="stop3856" />
    </linearGradient>
    <linearGradient
       inkscape:collect="always"
       id="linearGradient3844">
      <stop
         style="stop-color:#a0a0a0;stop-opacity:1;"
         offset="0"
         id="stop3846" />
      <stop
         style="stop-color:#a0a0a0;stop-opacity:0;"
         offset="1"
         id="stop3848" />
    </linearGradient>
    <linearGradient
       inkscape:collect="always"
       id="linearGradient3836">
      <stop
         style="stop-color:#a0a0a0;stop-opacity:1;"
         offset="0"
         id="stop3838" />
      <stop
         style="stop-color:#a0a0a0;stop-opacity:0;"
         offset="1"
         id="stop3840" />
    </linearGradient>
    <linearGradient
       inkscape:collect="always"
       id="linearGradient3828">
      <stop
         style="stop-color:#a0a0a0;stop-opacity:1;"
         offset="0"
         id="stop3830" />
      <stop
         style="stop-color:#a0a0a0;stop-opacity:0;"
         offset="1"
         id="stop3832" />
    </linearGradient>
    <linearGradient
       inkscape:collect="always"
       id="linearGradient3820">
      <stop
         style="stop-color:#a0a0a0;stop-opacity:1;"
         offset="0"
         id="stop3822" />
      <stop
         style="stop-color:#a0a0a0;stop-opacity:0;"
         offset="1"
         id="stop3824" />
    </linearGradient>
    <linearGradient
       inkscape:collect="always"
       id="linearGradient3812">
      <stop
         style="stop-color:#a0a0a0;stop-opacity:1;"
         offset="0"
         id="stop3814" />
      <stop
         style="stop-color:#a0a0a0;stop-opacity:0;"
         offset="1"
         id="stop3816" />
    </linearGradient>
    <linearGradient
       inkscape:collect="always"
       id="linearGradient3804">
      <stop
         style="stop-color:#a0a0a0;stop-opacity:1;"
         offset="0"
         id="stop3806" />
      <stop
         style="stop-color:#a0a0a0;stop-opacity:0;"
         offset="1"
         id="stop3808" />
    </linearGradient>
    <linearGradient
       inkscape:collect="always"
       id="linearGradient3796">
      <stop
         style="stop-color:#a0a0a0;stop-opacity:1;"
         offset="0"
         id="stop3798" />
      <stop
         style="stop-color:#a0a0a0;stop-opacity:0;"
         offset="1"
         id="stop3800" />
    </linearGradient>
    <linearGradient
       inkscape:collect="always"
       id="linearGradient3788">
      <stop
         style="stop-color:#a0a0a0;stop-opacity:1;"
         offset="0"
         id="stop3790" />
      <stop
         style="stop-color:#a0a0a0;stop-opacity:0;"
         offset="1"
         id="stop3792" />
    </linearGradient>
    <linearGradient
       inkscape:collect="always"
       id="linearGradient3780">
      <stop
         style="stop-color:#a0a0a0;stop-opacity:1;"
         offset="0"
         id="stop3782" />
      <stop
         style="stop-color:#a0a0a0;stop-opacity:0;"
         offset="1"
         id="stop3784" />
    </linearGradient>
    <linearGradient
       inkscape:collect="always"
       id="linearGradient3772">
      <stop
         style="stop-color:#000000;stop-opacity:1;"
         offset="0"
         id="stop3774" />
      <stop
         style="stop-color:#000000;stop-opacity:0;"
         offset="1"
         id="stop3776" />
    </linearGradient>
    <linearGradient
       inkscape:collect="always"
       xlink:href="#linearGradient3772"
       id="linearGradient3778"
       x1="38.585284"
       y1="12.632466"
       x2="66"
       y2="12.632466"
       gradientUnits="userSpaceOnUse" />
    <linearGradient
       inkscape:collect="always"
       xlink:href="#linearGradient3780"
       id="linearGradient3786"
       x1="3"
       y1="31.25"
       x2="61.263488"
       y2="31.25"
       gradientUnits="userSpaceOnUse" />
    <linearGradient
       inkscape:collect="always"
       xlink:href="#linearGradient3788"
       id="linearGradient3794"
       x1="43.867651"
       y1="34.421298"
       x2="61.142235"
       y2="34.421298"
       gradientUnits="userSpaceOnUse" />
    <linearGradient
       inkscape:collect="always"
       xlink:href="#linearGradient3796"
       id="linearGradient3802"
       x1="44.541321"
       y1="41.512185"
       x2="60.468565"
       y2="41.512185"
       gradientUnits="userSpaceOnUse" />
    <linearGradient
       inkscape:collect="always"
       xlink:href="#linearGradient3804"
       id="linearGradient3810"
       x1="44.541321"
       y1="45.057627"
       x2="60.468565"
       y2="45.057627"
       gradientUnits="userSpaceOnUse" />
    <linearGradient
       inkscape:collect="always"
       xlink:href="#linearGradient3812"
       id="linearGradient3818"
       x1="44.541321"
       y1="37.966742"
       x2="60.468565"
       y2="37.966742"
       gradientUnits="userSpaceOnUse" />
    <linearGradient
       inkscape:collect="always"
       xlink:href="#linearGradient3820"
       id="linearGradient3826"
       x1="34.159524"
       y1="40.859496"
       x2="36.83214"
       y2="40.859496"
       gradientUnits="userSpaceOnUse" />
    <linearGradient
       inkscape:collect="always"
       xlink:href="#linearGradient3828"
       id="linearGradient3834"
       x1="30.317108"
       y1="40.859496"
       x2="31.752399"
       y2="40.859496"
       gradientUnits="userSpaceOnUse" />
    <linearGradient
       inkscape:collect="always"
       xlink:href="#linearGradient3836"
       id="linearGradient3842"
       x1="43.917886"
       y1="40.601173"
       x2="46.590503"
       y2="40.601173"
       gradientUnits="userSpaceOnUse" />
    <linearGradient
       inkscape:collect="always"
       xlink:href="#linearGradient3844"
       id="linearGradient3850"
       x1="49.276693"
       y1="40.983059"
       x2="50.711985"
       y2="40.983059"
       gradientUnits="userSpaceOnUse" />
    <linearGradient
       inkscape:collect="always"
       xlink:href="#linearGradient3852"
       id="linearGradient3858"
       x1="12.472792"
       y1="40.983059"
       x2="13.908083"
       y2="40.983059"
       gradientUnits="userSpaceOnUse" />
    <linearGradient
       inkscape:collect="always"
       xlink:href="#linearGradient3860"
       id="linearGradient3866"
       x1="16.933871"
       y1="40.859496"
       x2="18.369161"
       y2="40.859496"
       gradientUnits="userSpaceOnUse" />
    <linearGradient
       inkscape:collect="always"
       xlink:href="#linearGradient3868"
       id="linearGradient3874"
       x1="21.394949"
       y1="40.859496"
       x2="22.830241"
       y2="40.859496"
       gradientUnits="userSpaceOnUse" />
    <linearGradient
       inkscape:collect="always"
       xlink:href="#linearGradient3876"
       id="linearGradient3882"
       x1="25.856028"
       y1="40.983059"
       x2="27.29132"
       y2="40.983059"
       gradientUnits="userSpaceOnUse" />
    <linearGradient
       inkscape:collect="always"
       xlink:href="#linearGradient3884"
       id="linearGradient3890"
       x1="53.737772"
       y1="40.859496"
       x2="55.173064"
       y2="40.859496"
       gradientUnits="userSpaceOnUse" />
    <linearGradient
       inkscape:collect="always"
       xlink:href="#linearGradient3892"
       id="linearGradient3898"
       x1="8.0117122"
       y1="40.859496"
       x2="9.4470042"
       y2="40.859496"
       gradientUnits="userSpaceOnUse" />
    <linearGradient
       inkscape:collect="always"
       xlink:href="#linearGradient3900"
       id="linearGradient3906"
       x1="3.4497204"
       y1="45.057627"
       x2="35.935659"
       y2="45.057627"
       gradientUnits="userSpaceOnUse" />
    <linearGradient
       inkscape:collect="always"
       xlink:href="#linearGradient3908"
       id="linearGradient3914"
       x1="3.9725965"
       y1="37.966742"
       x2="36.461847"
       y2="37.966742"
       gradientUnits="userSpaceOnUse" />
    <linearGradient
       inkscape:collect="always"
       xlink:href="#linearGradient3916"
       id="linearGradient3922"
       x1="3.455291"
       y1="41.512185"
       x2="36.571881"
       y2="41.512185"
       gradientUnits="userSpaceOnUse" />
    <linearGradient
       inkscape:collect="always"
       xlink:href="#linearGradient3924"
       id="linearGradient3930"
       x1="1.5383975"
       y1="34.421298"
       x2="37.293939"
       y2="34.421298"
       gradientUnits="userSpaceOnUse" />
    <linearGradient
       inkscape:collect="always"
       xlink:href="#linearGradient3932"
       id="linearGradient3938"
       x1="2.8787467"
       y1="27.872017"
       x2="61.142235"
       y2="27.872017"
       gradientUnits="userSpaceOnUse" />
    <linearGradient
       inkscape:collect="always"
       xlink:href="#linearGradient3940"
       id="linearGradient3946"
       x1="1.9419176"
       y1="36.784927"
       x2="61.163383"
       y2="36.784927"
       gradientUnits="userSpaceOnUse" />
    <filter
       inkscape:collect="always"
       id="filter4036">
      <feGaussianBlur
         inkscape:collect="always"
         stdDeviation="0.090614542"
         id="feGaussianBlur4038" />
    </filter>
    <filter
       inkscape:collect="always"
       id="filter4040">
      <feGaussianBlur
         inkscape:collect="always"
         stdDeviation="0.090614542"
         id="feGaussianBlur4042" />
    </filter>
    <filter
       inkscape:collect="always"
       id="filter4044">
      <feGaussianBlur
         inkscape:collect="always"
         stdDeviation="0.090614542"
         id="feGaussianBlur4046" />
    </filter>
    <filter
       inkscape:collect="always"
       id="filter4048">
      <feGaussianBlur
         inkscape:collect="always"
         stdDeviation="0.090614542"
         id="feGaussianBlur4050" />
    </filter>
    <filter
       inkscape:collect="always"
       id="filter4052">
      <feGaussianBlur
         inkscape:collect="always"
         stdDeviation="0.090614542"
         id="feGaussianBlur4054" />
    </filter>
    <filter
       inkscape:collect="always"
       id="filter4056">
      <feGaussianBlur
         inkscape:collect="always"
         stdDeviation="0.090614542"
         id="feGaussianBlur4058" />
    </filter>
    <filter
       inkscape:collect="always"
       id="filter4060"
       x="-1.2598768"
       width="3.5197537"
       y="-0.017038686"
       height="1.0340774">
      <feGaussianBlur
         inkscape:collect="always"
         stdDeviation="0.090614542"
         id="feGaussianBlur4062" />
    </filter>
    <filter
       inkscape:collect="always"
       id="filter4064"
       x="-1.2598695"
       width="3.5197391"
       y="-0.017038686"
       height="1.0340774">
      <feGaussianBlur
         inkscape:collect="always"
         stdDeviation="0.090614542"
         id="feGaussianBlur4066" />
    </filter>
    <filter
       inkscape:collect="always"
       id="filter4068"
       x="-1.2598695"
       width="3.5197391"
       y="-0.016160405"
       height="1.0323208">
      <feGaussianBlur
         inkscape:collect="always"
         stdDeviation="0.090614542"
         id="feGaussianBlur4070" />
    </filter>
    <filter
       inkscape:collect="always"
       id="filter4072"
       x="-1.2598622"
       width="3.5197245"
       y="-0.017038687"
       height="1.0340774">
      <feGaussianBlur
         inkscape:collect="always"
         stdDeviation="0.090614542"
         id="feGaussianBlur4074" />
    </filter>
    <filter
       inkscape:collect="always"
       id="filter4076"
       x="-1.2598695"
       width="3.5197391"
       y="-0.017038687"
       height="1.0340774">
      <feGaussianBlur
         inkscape:collect="always"
         stdDeviation="0.090614542"
         id="feGaussianBlur4078" />
    </filter>
    <filter
       inkscape:collect="always"
       id="filter4080"
       x="-1.2598768"
       width="3.5197537"
       y="-0.017038686"
       height="1.0340774">
      <feGaussianBlur
         inkscape:collect="always"
         stdDeviation="0.090614542"
         id="feGaussianBlur4082" />
    </filter>
    <filter
       inkscape:collect="always"
       id="filter4084"
       x="-1.2598622"
       width="3.5197245"
       y="-0.017038686"
       height="1.0340774">
      <feGaussianBlur
         inkscape:collect="always"
         stdDeviation="0.090614542"
         id="feGaussianBlur4086" />
    </filter>
    <filter
       inkscape:collect="always"
       id="filter4088"
       x="-1.2598622"
       width="3.5197245"
       y="-0.017038687"
       height="1.0340774">
      <feGaussianBlur
         inkscape:collect="always"
         stdDeviation="0.090614542"
         id="feGaussianBlur4090" />
    </filter>
    <filter
       inkscape:collect="always"
       id="filter4092"
       x="-1.2598622"
       width="3.5197245"
       y="-0.017038686"
       height="1.0340774">
      <feGaussianBlur
         inkscape:collect="always"
         stdDeviation="0.090614542"
         id="feGaussianBlur4094" />
    </filter>
    <filter
       inkscape:collect="always"
       id="filter4096"
       x="-1.2598695"
       width="3.5197391"
       y="-0.017038686"
       height="1.0340774">
      <feGaussianBlur
         inkscape:collect="always"
         stdDeviation="0.090614542"
         id="feGaussianBlur4098" />
    </filter>
    <filter
       inkscape:collect="always"
       id="filter4100">
      <feGaussianBlur
         inkscape:collect="always"
         stdDeviation="0.090614542"
         id="feGaussianBlur4102" />
    </filter>
    <filter
       inkscape:collect="always"
       id="filter4104">
      <feGaussianBlur
         inkscape:collect="always"
         stdDeviation="0.090614542"
         id="feGaussianBlur4106" />
    </filter>
    <filter
       inkscape:collect="always"
       id="filter4108">
      <feGaussianBlur
         inkscape:collect="always"
         stdDeviation="0.090614542"
         id="feGaussianBlur4110" />
    </filter>
    <filter
       inkscape:collect="always"
       id="filter4112">
      <feGaussianBlur
         inkscape:collect="always"
         stdDeviation="0.090614542"
         id="feGaussianBlur4114" />
    </filter>
    <filter
       inkscape:collect="always"
       id="filter4116">
      <feGaussianBlur
         inkscape:collect="always"
         stdDeviation="0.090614542"
         id="feGaussianBlur4118" />
    </filter>
    <filter
       inkscape:collect="always"
       id="filter4120">
      <feGaussianBlur
         inkscape:collect="always"
         stdDeviation="0.090614542"
         id="feGaussianBlur4122" />
    </filter>
  </defs>
  <sodipodi:namedview
     id="base"
     pagecolor="#ffffff"
     bordercolor="#666666"
     borderopacity="1.0"
     inkscape:pageopacity="0.0"
     inkscape:pageshadow="2"
     inkscape:zoom="4.5685727"
     inkscape:cx="28.924177"
     inkscape:cy="38.289418"
     inkscape:current-layer="layer1"
     showgrid="true"
     inkscape:document-units="px"
     inkscape:grid-bbox="true"
     inkscape:window-width="1400"
     inkscape:window-height="994"
     inkscape:window-x="-4"
     inkscape:window-y="-4"
     inkscape:window-maximized="0" />
  <metadata
     id="metadata25884">
    <rdf:RDF>
      <cc:Work
         rdf:about="">
        <dc:format>image/svg+xml</dc:format>
        <dc:type
           rdf:resource="http://purl.org/dc/dcmitype/StillImage" />
        <dc:title></dc:title>
      </cc:Work>
    </rdf:RDF>
  </metadata>
  <g
     id="layer1"
     inkscape:label="Layer 1"
     inkscape:groupmode="layer">
    <path
       style="opacity:1;fill:url(#linearGradient3946);fill-opacity:1;fill-rule:evenodd;stroke:#e8f6a2;stroke-width:3.45797729000000010;stroke-linecap:butt;stroke-linejoin:round;stroke-miterlimit:4;stroke-dasharray:none;stroke-opacity:0.88191873;filter:url(#filter4120)"
       d="M 3.6709062,24.966783 L 59.434394,24.966783 L 59.434394,24.966783 L 59.434394,48.603071 L 59.434394,48.603071 L 3.6709062,48.603071 L 3.6709062,24.966783 z "
       id="path25887" />
    <path
       style="fill:url(#linearGradient3938);fill-opacity:1;fill-rule:evenodd;stroke:#e8f6a2;stroke-width:2.50000000000000000;stroke-linecap:butt;stroke-linejoin:miter;stroke-miterlimit:4;stroke-dasharray:none;stroke-opacity:0.88191873;filter:url(#filter4116)"
       d="M 4.1287467,27.872017 L 59.892235,27.872017"
       id="path26765" />
    <path
       id="path26767"
       d="M 2.7883975,34.421298 L 36.043939,34.421298"
       style="fill:url(#linearGradient3930);fill-opacity:1;fill-rule:evenodd;stroke:#e8f6a2;stroke-width:2.50000000000000000;stroke-linecap:butt;stroke-linejoin:miter;stroke-miterlimit:4;stroke-dasharray:none;stroke-opacity:0.88191873;filter:url(#filter4112)" />
    <path
       style="fill:url(#linearGradient3922);fill-opacity:1;fill-rule:evenodd;stroke:#e8f6a2;stroke-width:0.87644458000000003;stroke-linecap:butt;stroke-linejoin:miter;stroke-miterlimit:4;stroke-dasharray:none;stroke-opacity:0.88191873;filter:url(#filter4108)"
       d="M 3.8935133,41.512185 L 36.133659,41.512185"
       id="path26769" />
    <path
       id="path26771"
       d="M 4.4065923,37.966742 L 36.027851,37.966742"
       style="fill:url(#linearGradient3914);fill-opacity:1;fill-rule:evenodd;stroke:#e8f6a2;stroke-width:0.86799157000000005;stroke-linecap:butt;stroke-linejoin:miter;stroke-miterlimit:4;stroke-dasharray:none;stroke-opacity:0.88191873;filter:url(#filter4104)" />
    <path
       style="fill:url(#linearGradient3906);fill-opacity:1;fill-rule:evenodd;stroke:#e8f6a2;stroke-width:0.86794674000000005;stroke-linecap:butt;stroke-linejoin:miter;stroke-miterlimit:4;stroke-dasharray:none;stroke-opacity:0.88191873;filter:url(#filter4100)"
       d="M 3.8836938,45.057627 L 35.501686,45.057627"
       id="path26773" />
    <path
       style="fill:url(#linearGradient3898);fill-opacity:1;fill-rule:evenodd;stroke:#e8f6a2;stroke-width:1.26267493000000000;stroke-linecap:butt;stroke-linejoin:miter;stroke-miterlimit:4;stroke-dasharray:none;stroke-opacity:0.88191873;filter:url(#filter4096)"
       d="M 8.6430497,34.477698 C 8.7293583,46.551926 8.8156667,47.241294 8.8156667,47.241294"
       id="path26775" />
    <path
       id="path26777"
       d="M 54.369109,34.477698 C 54.455418,46.551926 54.541727,47.241294 54.541727,47.241294"
       style="fill:url(#linearGradient3890);fill-opacity:1;fill-rule:evenodd;stroke:#e8f6a2;stroke-width:1.26267493000000000;stroke-linecap:butt;stroke-linejoin:miter;stroke-miterlimit:4;stroke-dasharray:none;stroke-opacity:0.88191873;filter:url(#filter4092)" />
    <path
       style="fill:url(#linearGradient3882);fill-opacity:1;fill-rule:evenodd;stroke:#e8f6a2;stroke-width:1.26267493000000000;stroke-linecap:butt;stroke-linejoin:miter;stroke-miterlimit:4;stroke-dasharray:none;stroke-opacity:0.88191873;filter:url(#filter4088)"
       d="M 26.487365,34.601262 C 26.573674,46.675489 26.659983,47.364857 26.659983,47.364857"
       id="path26779" />
    <path
       id="path26781"
       d="M 22.026286,34.477698 C 22.112595,46.551926 22.198904,47.241294 22.198904,47.241294"
       style="fill:url(#linearGradient3874);fill-opacity:1;fill-rule:evenodd;stroke:#e8f6a2;stroke-width:1.26267493000000000;stroke-linecap:butt;stroke-linejoin:miter;stroke-miterlimit:4;stroke-dasharray:none;stroke-opacity:0.88191873;filter:url(#filter4084)" />
    <path
       style="fill:url(#linearGradient3866);fill-opacity:1;fill-rule:evenodd;stroke:#e8f6a2;stroke-width:1.26267493000000000;stroke-linecap:butt;stroke-linejoin:miter;stroke-miterlimit:4;stroke-dasharray:none;stroke-opacity:0.88191873;filter:url(#filter4080)"
       d="M 17.565208,34.477698 C 17.651517,46.551926 17.737824,47.241294 17.737824,47.241294"
       id="path26783" />
    <path
       id="path26785"
       d="M 13.104129,34.601262 C 13.190437,46.675489 13.276746,47.364857 13.276746,47.364857"
       style="fill:url(#linearGradient3858);fill-opacity:1;fill-rule:evenodd;stroke:#e8f6a2;stroke-width:1.26267493000000000;stroke-linecap:butt;stroke-linejoin:miter;stroke-miterlimit:4;stroke-dasharray:none;stroke-opacity:0.88191873;filter:url(#filter4076)" />
    <path
       style="fill:url(#linearGradient3850);fill-opacity:1;fill-rule:evenodd;stroke:#e8f6a2;stroke-width:1.26267493000000000;stroke-linecap:butt;stroke-linejoin:miter;stroke-miterlimit:4;stroke-dasharray:none;stroke-opacity:0.88191873;filter:url(#filter4072)"
       d="M 49.90803,34.601262 C 49.994339,46.675489 50.080648,47.364857 50.080648,47.364857"
       id="path26787" />
    <path
       id="path26789"
       d="M 45.167886,33.872539 C 45.254195,46.602973 45.340503,47.329807 45.340503,47.329807"
       style="fill:url(#linearGradient3842);fill-opacity:1;fill-rule:evenodd;stroke:#e8f6a2;stroke-width:2.50000000000000000;stroke-linecap:butt;stroke-linejoin:miter;stroke-miterlimit:4;stroke-dasharray:none;stroke-opacity:0.88191873;filter:url(#filter4068)" />
    <path
       style="fill:url(#linearGradient3834);fill-opacity:1;fill-rule:evenodd;stroke:#e8f6a2;stroke-width:1.26267493000000000;stroke-linecap:butt;stroke-linejoin:miter;stroke-miterlimit:4;stroke-dasharray:none;stroke-opacity:0.88191873;filter:url(#filter4064)"
       d="M 30.948445,34.477698 C 31.034753,46.551926 31.121062,47.241294 31.121062,47.241294"
       id="path26791" />
    <path
       id="path26793"
       d="M 35.409524,34.477698 C 35.495833,46.551926 35.58214,47.241294 35.58214,47.241294"
       style="fill:url(#linearGradient3826);fill-opacity:1;fill-rule:evenodd;stroke:#e8f6a2;stroke-width:2.50000000000000000;stroke-linecap:butt;stroke-linejoin:miter;stroke-miterlimit:4;stroke-dasharray:none;stroke-opacity:0.88191873;filter:url(#filter4060)" />
    <path
       style="fill:url(#linearGradient3818);fill-opacity:1;fill-rule:evenodd;stroke:#e8f6a2;stroke-width:1.15265930000000010;stroke-linecap:butt;stroke-linejoin:miter;stroke-miterlimit:4;stroke-dasharray:none;stroke-opacity:0.88191873;filter:url(#filter4056)"
       d="M 45.117651,37.966742 L 59.892235,37.966742"
       id="path26799" />
    <path
       id="path26802"
       d="M 45.117651,45.057627 L 59.892235,45.057627"
       style="fill:url(#linearGradient3810);fill-opacity:1;fill-rule:evenodd;stroke:#e8f6a2;stroke-width:1.15265930000000010;stroke-linecap:butt;stroke-linejoin:miter;stroke-miterlimit:4;stroke-dasharray:none;stroke-opacity:0.88191873;filter:url(#filter4052)" />
    <path
       style="fill:url(#linearGradient3802);fill-opacity:1;fill-rule:evenodd;stroke:#e8f6a2;stroke-width:1.15265930000000010;stroke-linecap:butt;stroke-linejoin:miter;stroke-miterlimit:4;stroke-dasharray:none;stroke-opacity:0.88191873;filter:url(#filter4048)"
       d="M 45.117651,41.512185 L 59.892235,41.512185"
       id="path26804" />
    <path
       id="path26806"
       d="M 45.117651,34.421298 L 59.892235,34.421298"
       style="fill:url(#linearGradient3794);fill-opacity:1;fill-rule:evenodd;stroke:#e8f6a2;stroke-width:2.50000000000000000;stroke-linecap:butt;stroke-linejoin:miter;stroke-miterlimit:4;stroke-dasharray:none;stroke-opacity:0.88191873;filter:url(#filter4044)" />
    <path
       id="path26808"
       d="M 4.25,31.25 L 60.013488,31.25"
       style="fill:url(#linearGradient3786);fill-opacity:1;fill-rule:evenodd;stroke:#e8f6a2;stroke-width:2.50000000000000000;stroke-linecap:butt;stroke-linejoin:miter;stroke-miterlimit:4;stroke-dasharray:none;stroke-opacity:0.88191873;filter:url(#filter4040)" />
    <path
       style="fill:url(#linearGradient3778);fill-opacity:1;fill-rule:nonzero;stroke:#e8f6a2;stroke-width:1.00400603000000000;stroke-linecap:butt;stroke-linejoin:miter;stroke-miterlimit:4;stroke-dasharray:none;stroke-opacity:0.88191873;filter:url(#filter4036)"
       id="path26810"
       d="M 38.585284,24 C 38.843904,22.664446 39.381268,21.433502 40.005932,20.250831 C 41.168773,18.457439 41.721885,16.319057 42.79859,14.480221 C 44.226201,12.132784 46.278894,11.55592 48.681833,12.265566 C 50.896747,13.157082 52.713352,12.315366 54.757405,11.484747 C 56.930925,10.420621 56.515706,11.527183 57.626454,8.3048549 C 57.97772,6.8654002 58.674061,6.7444285 60.025563,5.9603017 C 60.277027,5.8144044 61.049718,5.4142906 60.798831,5.5613035 C 58.555738,6.875695 59.885813,6.078463 60.409596,5.6089518 C 61.174017,4.8731151 62.004753,4.2203134 62.787062,3.5078688 C 63.31665,2.9523315 63.885504,2.4451115 64.451949,1.933346 L 66,1.2649328 C 65.443231,1.7894308 64.852196,2.2715702 64.333037,2.8403991 C 63.555557,3.5725432 62.709332,4.218281 61.934466,4.9550846 C 61.148196,5.6639748 60.486069,6.0558679 59.51315,6.6604027 C 59.265156,6.8144971 58.491649,7.2169994 58.735602,7.0558224 C 60.857888,5.6536421 59.288366,6.5118757 59.112601,7.5707791 C 58.178426,10.276124 56.023846,11.71215 53.486335,12.541696 C 51.429296,13.39853 49.598594,14.119478 47.383563,13.209659 C 46.720841,13.018428 46.009417,12.73851 45.311585,12.769509 C 45.112515,12.778352 44.5645,13.035763 44.730875,12.919594 C 47.267412,11.148514 44.682811,12.996198 44.297776,13.781383 C 43.173807,15.595858 42.634509,17.731906 41.50083,19.542351 C 40.90009,20.698666 40.284656,21.899832 40.13556,23.228492 L 38.585284,24 z " />
  </g>
</svg>
