<?xml version="1.0" encoding="UTF-8" standalone="no"?>
<!-- Created with Inkscape (http://www.inkscape.org/) -->
<svg
   xmlns:dc="http://purl.org/dc/elements/1.1/"
   xmlns:cc="http://web.resource.org/cc/"
   xmlns:rdf="http://www.w3.org/1999/02/22-rdf-syntax-ns#"
   xmlns:svg="http://www.w3.org/2000/svg"
   xmlns="http://www.w3.org/2000/svg"
   xmlns:xlink="http://www.w3.org/1999/xlink"
   xmlns:sodipodi="http://inkscape.sourceforge.net/DTD/sodipodi-0.dtd"
   xmlns:inkscape="http://www.inkscape.org/namespaces/inkscape"
   width="64px"
   height="64px"
   id="svg3825"
   sodipodi:version="0.32"
   inkscape:version="0.43"
   sodipodi:docbase="C:\Documents and Settings\Marek\My Documents\Visual Studio 2008\Projects\GameLoader 2008\Resources\Inkscape"
   sodipodi:docname="IconView1.svg"
   inkscape:export-filename="C:\Documents and Settings\Marek\My Documents\Visual Studio 2008\Projects\GameLoader 2008\Resources\Inkscape\Icons\IconView1"
   inkscape:export-xdpi="90"
   inkscape:export-ydpi="90">
  <defs
     id="defs3827">
    <linearGradient
       id="linearGradient9949">
      <stop
         id="stop9951"
         offset="0"
         style="stop-color:#7c7c7c;stop-opacity:1;" />
      <stop
         id="stop9953"
         offset="1"
         style="stop-color:#bcbcbc;stop-opacity:0.59292036;" />
    </linearGradient>
    <linearGradient
       id="linearGradient9064">
      <stop
         style="stop-color:#ffffff;stop-opacity:0.79607844;"
         offset="0"
         id="stop9066" />
      <stop
         style="stop-color:#ffffff;stop-opacity:0;"
         offset="1"
         id="stop9068" />
    </linearGradient>
    <linearGradient
       id="linearGradient3095">
      <stop
         id="stop5778"
         offset="0"
         style="stop-color:#7c7c7c;stop-opacity:1;" />
      <stop
         style="stop-color:#616161;stop-opacity:0;"
         offset="1"
         id="stop5780" />
      <stop
         style="stop-color:#000000;stop-opacity:0.63716817;"
         offset="1"
         id="stop3099" />
    </linearGradient>
    <linearGradient
       id="linearGradient6454">
      <stop
         style="stop-color:#275abf;stop-opacity:1;"
         offset="0"
         id="stop6456" />
      <stop
         style="stop-color:#8dc8ef;stop-opacity:0.48627451;"
         offset="1"
         id="stop6458" />
    </linearGradient>
    <linearGradient
       id="linearGradient3871">
      <stop
         id="stop3873"
         offset="0"
         style="stop-color:#3453bc;stop-opacity:1;" />
      <stop
         id="stop3875"
         offset="1"
         style="stop-color:#ffffff;stop-opacity:0.88495576;" />
    </linearGradient>
    <linearGradient
       id="linearGradient5256">
      <stop
         id="stop5258"
         offset="0"
         style="stop-color:#f0f0f4;stop-opacity:1;" />
      <stop
         id="stop5260"
         offset="1"
         style="stop-color:#ededed;stop-opacity:0.29019609;" />
    </linearGradient>
    <linearGradient
       id="linearGradient4377">
      <stop
         style="stop-color:#000000;stop-opacity:1;"
         offset="0"
         id="stop4379" />
      <stop
         style="stop-color:#000000;stop-opacity:0.64601767;"
         offset="1"
         id="stop4381" />
    </linearGradient>
    <linearGradient
       id="linearGradient4128">
      <stop
         id="stop4130"
         offset="0"
         style="stop-color:#d8b03c;stop-opacity:1;" />
      <stop
         id="stop4132"
         offset="1"
         style="stop-color:#4997e6;stop-opacity:0.56470591;" />
    </linearGradient>
    <linearGradient
       inkscape:collect="always"
       xlink:href="#linearGradient4377"
       id="linearGradient8170"
       gradientUnits="userSpaceOnUse"
       gradientTransform="matrix(1.477405,-0.246928,6.731101e-3,1.086036,-14.24733,-4.18664)"
       x1="9.5"
       y1="26.942563"
       x2="52"
       y2="26.942563" />
    <linearGradient
       inkscape:collect="always"
       xlink:href="#linearGradient4377"
       id="linearGradient8173"
       gradientUnits="userSpaceOnUse"
       x1="9.5"
       y1="26.942563"
       x2="52"
       y2="26.942563"
       gradientTransform="translate(-1.287796e-6,1.86344e-7)" />
    <linearGradient
       inkscape:collect="always"
       xlink:href="#linearGradient4377"
       id="linearGradient8176"
       gradientUnits="userSpaceOnUse"
       x1="9.5"
       y1="26.942563"
       x2="52"
       y2="26.942563"
       gradientTransform="translate(-1.287796e-6,1.86344e-7)" />
    <linearGradient
       inkscape:collect="always"
       xlink:href="#linearGradient4377"
       id="linearGradient8179"
       gradientUnits="userSpaceOnUse"
       gradientTransform="matrix(1.507509,-1.502345e-7,-1.758156e-8,1.086078,-14.32752,-4.313111)"
       x1="9.5"
       y1="26.942563"
       x2="52"
       y2="26.942563" />
    <linearGradient
       inkscape:collect="always"
       xlink:href="#linearGradient3871"
       id="linearGradient8182"
       gradientUnits="userSpaceOnUse"
       x1="0.19730139"
       y1="13.686072"
       x2="64.197304"
       y2="13.686072"
       gradientTransform="translate(-1.287796e-6,1.86344e-7)" />
    <linearGradient
       inkscape:collect="always"
       xlink:href="#linearGradient4377"
       id="linearGradient8184"
       gradientUnits="userSpaceOnUse"
       x1="0.19730139"
       y1="13.686072"
       x2="64.197304"
       y2="13.686072"
       gradientTransform="translate(-1.287796e-6,1.86344e-7)" />
    <linearGradient
       inkscape:collect="always"
       xlink:href="#linearGradient4377"
       id="linearGradient8187"
       gradientUnits="userSpaceOnUse"
       gradientTransform="matrix(1.507508,-1.77304e-7,0,1.086079,-14.32752,-4.313122)"
       x1="9.5"
       y1="26.942563"
       x2="52"
       y2="26.942563" />
    <radialGradient
       inkscape:collect="always"
       xlink:href="#linearGradient9064"
       id="radialGradient9070"
       cx="13.189239"
       cy="17.748411"
       fx="13.189239"
       fy="17.748411"
       r="30.5"
       gradientTransform="matrix(1,0,0,0.795151,-6.557377e-8,4.353468)"
       gradientUnits="userSpaceOnUse" />
    <radialGradient
       inkscape:collect="always"
       xlink:href="#linearGradient9949"
       id="radialGradient9074"
       gradientUnits="userSpaceOnUse"
       cx="26.5"
       cy="21.252115"
       fx="26.5"
       fy="21.252115"
       r="30.5" />
  </defs>
  <sodipodi:namedview
     id="base"
     pagecolor="#ffffff"
     bordercolor="#666666"
     borderopacity="1.0"
     inkscape:pageopacity="0.0"
     inkscape:pageshadow="2"
     inkscape:zoom="9.546875"
     inkscape:cx="44.258788"
     inkscape:cy="33.933667"
     inkscape:current-layer="layer1"
     showgrid="true"
     inkscape:document-units="px"
     inkscape:grid-bbox="true"
     inkscape:window-width="1280"
     inkscape:window-height="744"
     inkscape:window-x="-4"
     inkscape:window-y="-4"
     showguides="true"
     inkscape:guide-bbox="true" />
  <metadata
     id="metadata3830">
    <rdf:RDF>
      <cc:Work
         rdf:about="">
        <dc:format>image/svg+xml</dc:format>
        <dc:type
           rdf:resource="http://purl.org/dc/dcmitype/StillImage" />
      </cc:Work>
    </rdf:RDF>
  </metadata>
  <g
     id="layer1"
     inkscape:label="Layer 1"
     inkscape:groupmode="layer">
    <rect
       style="opacity:1;fill:url(#radialGradient9074);fill-opacity:1;fill-rule:evenodd;stroke:none;stroke-width:3;stroke-linecap:round;stroke-linejoin:round;stroke-miterlimit:4;stroke-dasharray:none;stroke-dashoffset:0;stroke-opacity:1"
       id="rect9072"
       width="54"
       height="41.965683"
       x="11"
       y="17.034319"
       rx="11.530834"
       ry="0.69649339" />
    <path
       style="fill:#dfdfd0;fill-opacity:1;fill-rule:evenodd;stroke:url(#linearGradient8187);stroke-width:2.92367315;stroke-linecap:round;stroke-linejoin:round;stroke-miterlimit:4;stroke-dasharray:none;stroke-opacity:1"
       d="M 57.399597,11.99158 L 57.399597,46.618088 L 9.1056304,46.627079 L 8.9361775,11.667054 L 57.399597,11.99158 z "
       id="path3221"
       sodipodi:nodetypes="ccccc" />
    <rect
       style="fill:url(#linearGradient8182);fill-opacity:1;fill-rule:evenodd;stroke:url(#linearGradient8184);stroke-width:3.13216567;stroke-linecap:butt;stroke-linejoin:miter;stroke-miterlimit:4;stroke-dasharray:none;stroke-dashoffset:0;stroke-opacity:1"
       id="rect1594"
       width="48.120766"
       height="10.703264"
       x="9.0561152"
       y="1.2924017"
       ry="1.999544"
       rx="1.9995447" />
    <path
       style="fill:none;fill-opacity:0.75;fill-rule:evenodd;stroke:url(#linearGradient8179);stroke-width:1.66729248;stroke-linecap:round;stroke-linejoin:round;stroke-miterlimit:4;stroke-dasharray:none;stroke-opacity:1"
       d="M 44.851124,7.5413004 C 41.992248,7.5515097 41.992248,7.5515097 41.992248,7.5515097"
       id="path4436" />
    <path
       style="fill:none;fill-opacity:0.75;fill-rule:evenodd;stroke:url(#linearGradient8176);stroke-width:1.66729224;stroke-linecap:round;stroke-linejoin:round;stroke-miterlimit:4;stroke-dasharray:none;stroke-opacity:1"
       d="M 51.356794,4.9353438 L 54.388126,7.823119"
       id="path6474" />
    <path
       style="fill:none;fill-opacity:0.75;fill-rule:evenodd;stroke:url(#linearGradient8173);stroke-width:1.66729224;stroke-linecap:round;stroke-linejoin:round;stroke-miterlimit:4;stroke-dasharray:none;stroke-opacity:1"
       d="M 51.429071,7.7406485 L 54.368804,5.0292747"
       id="path6476" />
    <rect
       style="opacity:0.4;fill:none;fill-opacity:1;fill-rule:evenodd;stroke:url(#linearGradient8170);stroke-width:1.66764402;stroke-linecap:round;stroke-linejoin:round;stroke-miterlimit:4;stroke-dasharray:none;stroke-dashoffset:0;stroke-opacity:1"
       id="rect6478"
       width="2.8293447"
       height="2.9537897"
       x="46.710186"
       y="4.1276321"
       rx="0"
       ry="1.9995394"
       transform="matrix(0.999955,9.51645e-3,1.972151e-2,0.999806,0,0)" />
    <g
       id="g14890">
      <rect
         style="fill:#0000ff;fill-opacity:0.75;fill-rule:evenodd;stroke:#000000;stroke-width:0.3536163px;stroke-linecap:butt;stroke-linejoin:miter;stroke-opacity:1"
         id="use1460"
         width="31.74358"
         height="1.5756822"
         x="17.109074"
         y="18.212158" />
      <use
         height="64"
         width="64"
         transform="translate(-8.493662e-7,3.000001)"
         id="use14866"
         xlink:href="#use1460"
         y="0"
         x="0" />
      <use
         height="64"
         width="64"
         transform="translate(1.421085e-14,3)"
         id="use14868"
         xlink:href="#use14866"
         y="0"
         x="0" />
      <use
         height="64"
         width="64"
         transform="translate(0,15)"
         id="use14870"
         xlink:href="#use14868"
         y="0"
         x="0" />
      <use
         height="64"
         width="64"
         transform="translate(0,-3.38903)"
         id="use14872"
         xlink:href="#use14870"
         y="0"
         x="0" />
      <use
         height="64"
         width="64"
         transform="translate(3.827456e-2,-5)"
         id="use14874"
         xlink:href="#use14872"
         y="0"
         x="0" />
    </g>
    <rect
       style="opacity:1;fill:url(#radialGradient9070);fill-opacity:1;fill-rule:evenodd;stroke:none;stroke-width:3;stroke-linecap:round;stroke-linejoin:round;stroke-miterlimit:4;stroke-dasharray:none;stroke-dashoffset:0;stroke-opacity:1"
       id="rect8189"
       width="54"
       height="41.965683"
       x="5.6885247"
       y="-2"
       rx="11.530834"
       ry="0.69649339" />
    <path
       style="fill:#000000;fill-opacity:1;fill-rule:evenodd;stroke:#000000;stroke-width:1.12028921px;stroke-linecap:butt;stroke-linejoin:miter;stroke-opacity:1"
       d="M 0.62424591,7.5 L 0.62424591,41.5 L 6.8994857,23.5 L 0.62424591,7.5 z "
       id="path13971" />
  </g>
</svg>
