<?xml version="1.0" encoding="UTF-8" standalone="no"?>
<!-- Created with Inkscape (http://www.inkscape.org/) -->
<svg
   xmlns:dc="http://purl.org/dc/elements/1.1/"
   xmlns:cc="http://web.resource.org/cc/"
   xmlns:rdf="http://www.w3.org/1999/02/22-rdf-syntax-ns#"
   xmlns:svg="http://www.w3.org/2000/svg"
   xmlns="http://www.w3.org/2000/svg"
   xmlns:xlink="http://www.w3.org/1999/xlink"
   xmlns:sodipodi="http://inkscape.sourceforge.net/DTD/sodipodi-0.dtd"
   xmlns:inkscape="http://www.inkscape.org/namespaces/inkscape"
   width="64px"
   height="64px"
   id="svg1705"
   sodipodi:version="0.32"
   inkscape:version="0.43"
   sodipodi:docbase="Z:\Visual Studio 2008\Projects\GameLoader 2008\Resources\Inkscape\Icons"
   sodipodi:docname="Logo.svg"
   inkscape:export-filename="Z:\Visual Studio 2008\Projects\GameLoader 2008\Resources\Inkscape\Icons\Profile12b+.png"
   inkscape:export-xdpi="90"
   inkscape:export-ydpi="90">
  <defs
     id="defs1707">
    <linearGradient
       id="linearGradient6488">
      <stop
         style="stop-color:#22500a;stop-opacity:1;"
         offset="0"
         id="stop6490" />
      <stop
         style="stop-color:#250e02;stop-opacity:0.44247788;"
         offset="1"
         id="stop6492" />
    </linearGradient>
    <linearGradient
       id="linearGradient6480">
      <stop
         style="stop-color:#b4f5bb;stop-opacity:1;"
         offset="0"
         id="stop6482" />
      <stop
         style="stop-color:#8de8ef;stop-opacity:0.460177;"
         offset="1"
         id="stop6484" />
    </linearGradient>
    <linearGradient
       id="linearGradient6454">
      <stop
         style="stop-color:#275abf;stop-opacity:1;"
         offset="0"
         id="stop6456" />
      <stop
         style="stop-color:#8dc8ef;stop-opacity:0.48627451;"
         offset="1"
         id="stop6458" />
    </linearGradient>
    <linearGradient
       id="linearGradient3095">
      <stop
         id="stop5778"
         offset="0"
         style="stop-color:#7c7c7c;stop-opacity:1;" />
      <stop
         style="stop-color:#616161;stop-opacity:0;"
         offset="1"
         id="stop5780" />
      <stop
         style="stop-color:#000000;stop-opacity:0.63716817;"
         offset="1"
         id="stop3099" />
    </linearGradient>
    <radialGradient
       inkscape:collect="always"
       xlink:href="#linearGradient3095"
       id="radialGradient3105"
       cx="40.164452"
       cy="27.782347"
       fx="40.164452"
       fy="27.782347"
       r="19.376663"
       gradientTransform="matrix(1.41418,0,0,1.381228,-25.83691,-18.87057)"
       gradientUnits="userSpaceOnUse" />
    <linearGradient
       id="linearGradient5256">
      <stop
         style="stop-color:#bab8cd;stop-opacity:1;"
         offset="0"
         id="stop5258" />
      <stop
         style="stop-color:#9c9c9c;stop-opacity:0.2920354;"
         offset="1"
         id="stop5260" />
    </linearGradient>
    <radialGradient
       inkscape:collect="always"
       xlink:href="#linearGradient6454"
       id="radialGradient6462"
       cx="-46.40625"
       cy="13.298975"
       fx="-46.40625"
       fy="13.298975"
       r="22.594551"
       gradientTransform="matrix(1,0,0,-1.130477,-8.85127,32.83314)"
       gradientUnits="userSpaceOnUse"
       spreadMethod="pad" />
    <linearGradient
       inkscape:collect="always"
       xlink:href="#linearGradient5256"
       id="linearGradient6486"
       x1="35.753326"
       y1="25.770254"
       x2="51.695286"
       y2="55.642078"
       gradientUnits="userSpaceOnUse" />
    <linearGradient
       inkscape:collect="always"
       xlink:href="#linearGradient6488"
       id="linearGradient6494"
       x1="18.604102"
       y1="38.917108"
       x2="63.503619"
       y2="38.917108"
       gradientUnits="userSpaceOnUse" />
    <linearGradient
       inkscape:collect="always"
       xlink:href="#linearGradient6488"
       id="linearGradient6496"
       x1="19.444105"
       y1="19.221241"
       x2="29.58387"
       y2="19.221241"
       gradientUnits="userSpaceOnUse" />
    <radialGradient
       inkscape:collect="always"
       xlink:href="#linearGradient6454"
       id="radialGradient6655"
       gradientUnits="userSpaceOnUse"
       gradientTransform="matrix(1,0,0,-1.218101,56,19.67742)"
       spreadMethod="pad"
       cx="-46.40625"
       cy="13.298975"
       fx="-46.40625"
       fy="13.298975"
       r="22.594551" />
    <radialGradient
       inkscape:collect="always"
       xlink:href="#linearGradient6454"
       id="radialGradient6657"
       gradientUnits="userSpaceOnUse"
       gradientTransform="matrix(1,0,0,-1.218101,56,19.67742)"
       spreadMethod="pad"
       cx="-46.40625"
       cy="13.298975"
       fx="-46.40625"
       fy="13.298975"
       r="22.594551" />
    <radialGradient
       inkscape:collect="always"
       xlink:href="#linearGradient6454"
       id="radialGradient6659"
       gradientUnits="userSpaceOnUse"
       gradientTransform="matrix(1,0,0,-1.218101,56,19.67742)"
       spreadMethod="pad"
       cx="-46.40625"
       cy="13.298975"
       fx="-46.40625"
       fy="13.298975"
       r="22.594551" />
    <radialGradient
       inkscape:collect="always"
       xlink:href="#linearGradient6454"
       id="radialGradient6661"
       gradientUnits="userSpaceOnUse"
       gradientTransform="matrix(1,0,0,-1.218101,56,19.67742)"
       spreadMethod="pad"
       cx="-46.40625"
       cy="13.298975"
       fx="-46.40625"
       fy="13.298975"
       r="22.594551" />
    <radialGradient
       inkscape:collect="always"
       xlink:href="#linearGradient6454"
       id="radialGradient6663"
       gradientUnits="userSpaceOnUse"
       gradientTransform="matrix(1,0,0,-1.218101,56,19.67742)"
       spreadMethod="pad"
       cx="-46.40625"
       cy="13.298975"
       fx="-46.40625"
       fy="13.298975"
       r="22.594551" />
    <radialGradient
       inkscape:collect="always"
       xlink:href="#linearGradient6454"
       id="radialGradient6665"
       gradientUnits="userSpaceOnUse"
       gradientTransform="matrix(1,0,0,-1.218101,56,19.67742)"
       spreadMethod="pad"
       cx="-46.40625"
       cy="13.298975"
       fx="-46.40625"
       fy="13.298975"
       r="22.594551" />
    <radialGradient
       inkscape:collect="always"
       xlink:href="#linearGradient6454"
       id="radialGradient6667"
       gradientUnits="userSpaceOnUse"
       gradientTransform="matrix(1,0,0,-1.218101,56,19.67742)"
       spreadMethod="pad"
       cx="-46.40625"
       cy="13.298975"
       fx="-46.40625"
       fy="13.298975"
       r="22.594551" />
    <radialGradient
       inkscape:collect="always"
       xlink:href="#linearGradient6454"
       id="radialGradient6669"
       gradientUnits="userSpaceOnUse"
       gradientTransform="matrix(1,0,0,-1.218101,56,19.67742)"
       spreadMethod="pad"
       cx="-46.40625"
       cy="13.298975"
       fx="-46.40625"
       fy="13.298975"
       r="22.594551" />
    <radialGradient
       inkscape:collect="always"
       xlink:href="#linearGradient6454"
       id="radialGradient6671"
       gradientUnits="userSpaceOnUse"
       gradientTransform="matrix(1,0,0,-1.218101,56,19.67742)"
       spreadMethod="pad"
       cx="-46.40625"
       cy="13.298975"
       fx="-46.40625"
       fy="13.298975"
       r="22.594551" />
    <radialGradient
       inkscape:collect="always"
       xlink:href="#linearGradient6454"
       id="radialGradient6673"
       gradientUnits="userSpaceOnUse"
       gradientTransform="matrix(1,0,0,-1.218101,56,19.67742)"
       spreadMethod="pad"
       cx="-46.40625"
       cy="13.298975"
       fx="-46.40625"
       fy="13.298975"
       r="22.594551" />
    <radialGradient
       inkscape:collect="always"
       xlink:href="#linearGradient6454"
       id="radialGradient6675"
       gradientUnits="userSpaceOnUse"
       gradientTransform="matrix(1,0,0,-1.218101,56,19.67742)"
       spreadMethod="pad"
       cx="-46.40625"
       cy="13.298975"
       fx="-46.40625"
       fy="13.298975"
       r="22.594551" />
    <radialGradient
       inkscape:collect="always"
       xlink:href="#linearGradient6454"
       id="radialGradient6677"
       gradientUnits="userSpaceOnUse"
       gradientTransform="matrix(1,0,0,-1.218101,56,19.67742)"
       spreadMethod="pad"
       cx="-46.40625"
       cy="13.298975"
       fx="-46.40625"
       fy="13.298975"
       r="22.594551" />
    <radialGradient
       inkscape:collect="always"
       xlink:href="#linearGradient6454"
       id="radialGradient6679"
       gradientUnits="userSpaceOnUse"
       gradientTransform="matrix(1,0,0,-1.218101,56,19.67742)"
       spreadMethod="pad"
       cx="-46.40625"
       cy="13.298975"
       fx="-46.40625"
       fy="13.298975"
       r="22.594551" />
    <radialGradient
       inkscape:collect="always"
       xlink:href="#linearGradient6454"
       id="radialGradient6681"
       gradientUnits="userSpaceOnUse"
       gradientTransform="matrix(1,0,0,-1.218101,56,19.67742)"
       spreadMethod="pad"
       cx="-46.40625"
       cy="13.298975"
       fx="-46.40625"
       fy="13.298975"
       r="22.594551" />
    <radialGradient
       inkscape:collect="always"
       xlink:href="#linearGradient6454"
       id="radialGradient6683"
       gradientUnits="userSpaceOnUse"
       gradientTransform="matrix(1,0,0,-1.218101,56,19.67742)"
       spreadMethod="pad"
       cx="-46.40625"
       cy="13.298975"
       fx="-46.40625"
       fy="13.298975"
       r="22.594551" />
    <radialGradient
       inkscape:collect="always"
       xlink:href="#linearGradient6454"
       id="radialGradient6685"
       gradientUnits="userSpaceOnUse"
       gradientTransform="matrix(1,0,0,-1.218101,33.62616,46.14369)"
       spreadMethod="pad"
       cx="-46.40625"
       cy="13.298975"
       fx="-46.40625"
       fy="13.298975"
       r="22.594551" />
    <radialGradient
       inkscape:collect="always"
       xlink:href="#linearGradient6454"
       id="radialGradient6687"
       gradientUnits="userSpaceOnUse"
       gradientTransform="matrix(1,0,0,-1.218101,69.59064,42.11754)"
       spreadMethod="pad"
       cx="-46.40625"
       cy="13.298975"
       fx="-46.40625"
       fy="13.298975"
       r="22.594551" />
    <radialGradient
       inkscape:collect="always"
       xlink:href="#linearGradient3095"
       id="radialGradient3325"
       cx="-34.128174"
       cy="43.337364"
       fx="-34.128174"
       fy="43.337364"
       r="23.293833"
       gradientTransform="matrix(1,0,0,0.156146,0,36.5704)"
       gradientUnits="userSpaceOnUse" />
    <radialGradient
       inkscape:collect="always"
       xlink:href="#linearGradient6454"
       id="radialGradient3348"
       gradientUnits="userSpaceOnUse"
       gradientTransform="matrix(1,0,0,-1.218101,56,19.67742)"
       spreadMethod="pad"
       cx="-46.40625"
       cy="13.298975"
       fx="-46.40625"
       fy="13.298975"
       r="22.594551" />
    <radialGradient
       inkscape:collect="always"
       xlink:href="#linearGradient6454"
       id="radialGradient3350"
       gradientUnits="userSpaceOnUse"
       gradientTransform="matrix(1,0,0,-1.218101,56,19.67742)"
       spreadMethod="pad"
       cx="-46.40625"
       cy="13.298975"
       fx="-46.40625"
       fy="13.298975"
       r="22.594551" />
    <radialGradient
       inkscape:collect="always"
       xlink:href="#linearGradient6454"
       id="radialGradient3352"
       gradientUnits="userSpaceOnUse"
       gradientTransform="matrix(1,0,0,-1.218101,56,19.67742)"
       spreadMethod="pad"
       cx="-46.40625"
       cy="13.298975"
       fx="-46.40625"
       fy="13.298975"
       r="22.594551" />
    <radialGradient
       inkscape:collect="always"
       xlink:href="#linearGradient6454"
       id="radialGradient3354"
       gradientUnits="userSpaceOnUse"
       gradientTransform="matrix(1,0,0,-1.218101,56,19.67742)"
       spreadMethod="pad"
       cx="-46.40625"
       cy="13.298975"
       fx="-46.40625"
       fy="13.298975"
       r="22.594551" />
    <radialGradient
       inkscape:collect="always"
       xlink:href="#linearGradient6454"
       id="radialGradient3356"
       gradientUnits="userSpaceOnUse"
       gradientTransform="matrix(1,0,0,-1.218101,56,19.67742)"
       spreadMethod="pad"
       cx="-46.40625"
       cy="13.298975"
       fx="-46.40625"
       fy="13.298975"
       r="22.594551" />
    <radialGradient
       inkscape:collect="always"
       xlink:href="#linearGradient6454"
       id="radialGradient3358"
       gradientUnits="userSpaceOnUse"
       gradientTransform="matrix(1,0,0,-1.218101,56,19.67742)"
       spreadMethod="pad"
       cx="-46.40625"
       cy="13.298975"
       fx="-46.40625"
       fy="13.298975"
       r="22.594551" />
    <radialGradient
       inkscape:collect="always"
       xlink:href="#linearGradient6454"
       id="radialGradient3360"
       gradientUnits="userSpaceOnUse"
       gradientTransform="matrix(1,0,0,-1.218101,56,19.67742)"
       spreadMethod="pad"
       cx="-46.40625"
       cy="13.298975"
       fx="-46.40625"
       fy="13.298975"
       r="22.594551" />
    <radialGradient
       inkscape:collect="always"
       xlink:href="#linearGradient6454"
       id="radialGradient3362"
       gradientUnits="userSpaceOnUse"
       gradientTransform="matrix(1,0,0,-1.218101,56,19.67742)"
       spreadMethod="pad"
       cx="-46.40625"
       cy="13.298975"
       fx="-46.40625"
       fy="13.298975"
       r="22.594551" />
    <radialGradient
       inkscape:collect="always"
       xlink:href="#linearGradient6454"
       id="radialGradient3364"
       gradientUnits="userSpaceOnUse"
       gradientTransform="matrix(1,0,0,-1.218101,56,19.67742)"
       spreadMethod="pad"
       cx="-46.40625"
       cy="13.298975"
       fx="-46.40625"
       fy="13.298975"
       r="22.594551" />
    <radialGradient
       inkscape:collect="always"
       xlink:href="#linearGradient6454"
       id="radialGradient3366"
       gradientUnits="userSpaceOnUse"
       gradientTransform="matrix(1,0,0,-1.218101,56,19.67742)"
       spreadMethod="pad"
       cx="-46.40625"
       cy="13.298975"
       fx="-46.40625"
       fy="13.298975"
       r="22.594551" />
    <radialGradient
       inkscape:collect="always"
       xlink:href="#linearGradient6454"
       id="radialGradient3368"
       gradientUnits="userSpaceOnUse"
       gradientTransform="matrix(1,0,0,-1.218101,56,19.67742)"
       spreadMethod="pad"
       cx="-46.40625"
       cy="13.298975"
       fx="-46.40625"
       fy="13.298975"
       r="22.594551" />
    <radialGradient
       inkscape:collect="always"
       xlink:href="#linearGradient6454"
       id="radialGradient3370"
       gradientUnits="userSpaceOnUse"
       gradientTransform="matrix(1,0,0,-1.218101,56,19.67742)"
       spreadMethod="pad"
       cx="-46.40625"
       cy="13.298975"
       fx="-46.40625"
       fy="13.298975"
       r="22.594551" />
    <radialGradient
       inkscape:collect="always"
       xlink:href="#linearGradient6454"
       id="radialGradient3372"
       gradientUnits="userSpaceOnUse"
       gradientTransform="matrix(1,0,0,-1.218101,56,19.67742)"
       spreadMethod="pad"
       cx="-46.40625"
       cy="13.298975"
       fx="-46.40625"
       fy="13.298975"
       r="22.594551" />
    <radialGradient
       inkscape:collect="always"
       xlink:href="#linearGradient6454"
       id="radialGradient3374"
       gradientUnits="userSpaceOnUse"
       gradientTransform="matrix(1,0,0,-1.218101,56,19.67742)"
       spreadMethod="pad"
       cx="-46.40625"
       cy="13.298975"
       fx="-46.40625"
       fy="13.298975"
       r="22.594551" />
    <radialGradient
       inkscape:collect="always"
       xlink:href="#linearGradient6454"
       id="radialGradient3376"
       gradientUnits="userSpaceOnUse"
       gradientTransform="matrix(1,0,0,-1.218101,56,19.67742)"
       spreadMethod="pad"
       cx="-46.40625"
       cy="13.298975"
       fx="-46.40625"
       fy="13.298975"
       r="22.594551" />
    <radialGradient
       inkscape:collect="always"
       xlink:href="#linearGradient6454"
       id="radialGradient3378"
       gradientUnits="userSpaceOnUse"
       gradientTransform="matrix(1,0,0,-1.218101,33.62616,46.14369)"
       spreadMethod="pad"
       cx="-46.40625"
       cy="13.298975"
       fx="-46.40625"
       fy="13.298975"
       r="22.594551" />
    <radialGradient
       inkscape:collect="always"
       xlink:href="#linearGradient6454"
       id="radialGradient3380"
       gradientUnits="userSpaceOnUse"
       gradientTransform="matrix(1,0,0,-1.218101,69.59064,42.11754)"
       spreadMethod="pad"
       cx="-46.40625"
       cy="13.298975"
       fx="-46.40625"
       fy="13.298975"
       r="22.594551" />
    <radialGradient
       inkscape:collect="always"
       xlink:href="#linearGradient3095"
       id="radialGradient3382"
       gradientUnits="userSpaceOnUse"
       gradientTransform="matrix(1,0,0,0.156146,0,36.5704)"
       cx="-34.128174"
       cy="43.337364"
       fx="-34.128174"
       fy="43.337364"
       r="23.293833" />
    <radialGradient
       inkscape:collect="always"
       xlink:href="#linearGradient3095"
       id="radialGradient3403"
       gradientUnits="userSpaceOnUse"
       gradientTransform="matrix(1,0,0,0.156146,0,36.5704)"
       cx="-34.128174"
       cy="43.337364"
       fx="-34.128174"
       fy="43.337364"
       r="23.293833" />
    <radialGradient
       inkscape:collect="always"
       xlink:href="#linearGradient6454"
       id="radialGradient4507"
       gradientUnits="userSpaceOnUse"
       gradientTransform="matrix(1,0,0,-1.218101,-8.85127,32.01863)"
       spreadMethod="pad"
       cx="-46.40625"
       cy="13.298975"
       fx="-46.40625"
       fy="13.298975"
       r="22.594551" />
    <radialGradient
       inkscape:collect="always"
       xlink:href="#linearGradient6454"
       id="radialGradient4509"
       gradientUnits="userSpaceOnUse"
       gradientTransform="matrix(1,0,0,-1.218101,-8.85127,32.01863)"
       spreadMethod="pad"
       cx="-46.40625"
       cy="13.298975"
       fx="-46.40625"
       fy="13.298975"
       r="22.594551" />
    <radialGradient
       inkscape:collect="always"
       xlink:href="#linearGradient6454"
       id="radialGradient4511"
       gradientUnits="userSpaceOnUse"
       gradientTransform="matrix(1,0,0,-1.218101,-8.85127,32.01863)"
       spreadMethod="pad"
       cx="-46.40625"
       cy="13.298975"
       fx="-46.40625"
       fy="13.298975"
       r="22.594551" />
    <radialGradient
       inkscape:collect="always"
       xlink:href="#linearGradient6454"
       id="radialGradient4513"
       gradientUnits="userSpaceOnUse"
       gradientTransform="matrix(1,0,0,-1.218101,-8.85127,32.01863)"
       spreadMethod="pad"
       cx="-46.40625"
       cy="13.298975"
       fx="-46.40625"
       fy="13.298975"
       r="22.594551" />
    <radialGradient
       inkscape:collect="always"
       xlink:href="#linearGradient6454"
       id="radialGradient4515"
       gradientUnits="userSpaceOnUse"
       gradientTransform="matrix(1,0,0,-1.218101,-8.85127,32.01863)"
       spreadMethod="pad"
       cx="-46.40625"
       cy="13.298975"
       fx="-46.40625"
       fy="13.298975"
       r="22.594551" />
    <radialGradient
       inkscape:collect="always"
       xlink:href="#linearGradient6454"
       id="radialGradient4517"
       gradientUnits="userSpaceOnUse"
       gradientTransform="matrix(1,0,0,-1.218101,-8.85127,32.01863)"
       spreadMethod="pad"
       cx="-46.40625"
       cy="13.298975"
       fx="-46.40625"
       fy="13.298975"
       r="22.594551" />
    <radialGradient
       inkscape:collect="always"
       xlink:href="#linearGradient6454"
       id="radialGradient4519"
       gradientUnits="userSpaceOnUse"
       gradientTransform="matrix(1,0,0,-1.218101,-8.85127,32.01863)"
       spreadMethod="pad"
       cx="-46.40625"
       cy="13.298975"
       fx="-46.40625"
       fy="13.298975"
       r="22.594551" />
    <radialGradient
       inkscape:collect="always"
       xlink:href="#linearGradient6454"
       id="radialGradient4521"
       gradientUnits="userSpaceOnUse"
       gradientTransform="matrix(1,0,0,-1.218101,-8.85127,32.01863)"
       spreadMethod="pad"
       cx="-46.40625"
       cy="13.298975"
       fx="-46.40625"
       fy="13.298975"
       r="22.594551" />
    <radialGradient
       inkscape:collect="always"
       xlink:href="#linearGradient6454"
       id="radialGradient4523"
       gradientUnits="userSpaceOnUse"
       gradientTransform="matrix(1,0,0,-1.218101,-8.85127,32.01863)"
       spreadMethod="pad"
       cx="-46.40625"
       cy="13.298975"
       fx="-46.40625"
       fy="13.298975"
       r="22.594551" />
    <radialGradient
       inkscape:collect="always"
       xlink:href="#linearGradient6454"
       id="radialGradient4525"
       gradientUnits="userSpaceOnUse"
       gradientTransform="matrix(1,0,0,-1.218101,-8.85127,32.01863)"
       spreadMethod="pad"
       cx="-46.40625"
       cy="13.298975"
       fx="-46.40625"
       fy="13.298975"
       r="22.594551" />
    <radialGradient
       inkscape:collect="always"
       xlink:href="#linearGradient6454"
       id="radialGradient4527"
       gradientUnits="userSpaceOnUse"
       gradientTransform="matrix(1,0,0,-1.218101,-8.85127,32.01863)"
       spreadMethod="pad"
       cx="-46.40625"
       cy="13.298975"
       fx="-46.40625"
       fy="13.298975"
       r="22.594551" />
    <radialGradient
       inkscape:collect="always"
       xlink:href="#linearGradient6454"
       id="radialGradient4529"
       gradientUnits="userSpaceOnUse"
       gradientTransform="matrix(1,0,0,-1.218101,-8.85127,32.01863)"
       spreadMethod="pad"
       cx="-46.40625"
       cy="13.298975"
       fx="-46.40625"
       fy="13.298975"
       r="22.594551" />
    <radialGradient
       inkscape:collect="always"
       xlink:href="#linearGradient6454"
       id="radialGradient4531"
       gradientUnits="userSpaceOnUse"
       gradientTransform="matrix(1,0,0,-1.218101,-8.85127,32.01863)"
       spreadMethod="pad"
       cx="-46.40625"
       cy="13.298975"
       fx="-46.40625"
       fy="13.298975"
       r="22.594551" />
    <radialGradient
       inkscape:collect="always"
       xlink:href="#linearGradient6454"
       id="radialGradient4533"
       gradientUnits="userSpaceOnUse"
       gradientTransform="matrix(1,0,0,-1.218101,-8.85127,32.01863)"
       spreadMethod="pad"
       cx="-46.40625"
       cy="13.298975"
       fx="-46.40625"
       fy="13.298975"
       r="22.594551" />
    <radialGradient
       inkscape:collect="always"
       xlink:href="#linearGradient6454"
       id="radialGradient4535"
       gradientUnits="userSpaceOnUse"
       gradientTransform="matrix(1,0,0,-1.218101,-8.85127,32.01863)"
       spreadMethod="pad"
       cx="-46.40625"
       cy="13.298975"
       fx="-46.40625"
       fy="13.298975"
       r="22.594551" />
    <radialGradient
       inkscape:collect="always"
       xlink:href="#linearGradient6454"
       id="radialGradient4537"
       gradientUnits="userSpaceOnUse"
       gradientTransform="matrix(1,0,0,-1.218101,-5.314898,52.55413)"
       spreadMethod="pad"
       cx="20.695049"
       cy="19.415028"
       fx="20.695049"
       fy="19.415028"
       r="22.594551" />
    <radialGradient
       inkscape:collect="always"
       xlink:href="#linearGradient6454"
       id="radialGradient4539"
       gradientUnits="userSpaceOnUse"
       gradientTransform="matrix(1,0,0,-1.218101,-10.99938,54.98049)"
       spreadMethod="pad"
       cx="31.298681"
       cy="26.99822"
       fx="31.298681"
       fy="26.99822"
       r="22.594551" />
    <radialGradient
       inkscape:collect="always"
       xlink:href="#linearGradient3095"
       id="radialGradient4541"
       gradientUnits="userSpaceOnUse"
       gradientTransform="matrix(1,0,0,0.156146,-64.85127,25.11695)"
       cx="32.58041"
       cy="116.68832"
       fx="32.58041"
       fy="116.68832"
       r="23.293833" />
  </defs>
  <sodipodi:namedview
     id="base"
     pagecolor="#ffffff"
     bordercolor="#666666"
     borderopacity="1.0"
     inkscape:pageopacity="0.0"
     inkscape:pageshadow="2"
     inkscape:zoom="6.4609375"
     inkscape:cx="10.427712"
     inkscape:cy="50.862331"
     inkscape:current-layer="layer1"
     showgrid="true"
     inkscape:document-units="px"
     inkscape:grid-bbox="true"
     inkscape:window-width="1400"
     inkscape:window-height="994"
     inkscape:window-x="-4"
     inkscape:window-y="-4" />
  <metadata
     id="metadata1710">
    <rdf:RDF>
      <cc:Work
         rdf:about="">
        <dc:format>image/svg+xml</dc:format>
        <dc:type
           rdf:resource="http://purl.org/dc/dcmitype/StillImage" />
      </cc:Work>
    </rdf:RDF>
  </metadata>
  <g
     id="layer1"
     inkscape:label="Layer 1"
     inkscape:groupmode="layer">
    <g
       id="g4486"
       transform="translate(64.85127,11.45345)">
      <g
         inkscape:export-filename="Z:\Visual Studio 2008\Projects\GameLoader 2008\Resources\Inkscape\Icons\Profile11+.png"
         inkscape:export-ydpi="123.63788"
         inkscape:export-xdpi="123.63788"
         style="fill:url(#radialGradient6462);fill-opacity:1"
         transform="matrix(1,0,0,-0.928065,12.8117,28.77036)"
         id="g6435">
        <path
           style="fill:url(#radialGradient4507);fill-opacity:1;fill-rule:evenodd;stroke:none;stroke-width:1px;stroke-linecap:butt;stroke-linejoin:miter;stroke-opacity:1"
           d="M -54.481258,0 L -56,-4.5659008 L -55,-7 L -52.469166,-7 L -50.457074,-6 L -49,-3 L -48,-2 L -47,-4 C -47,-4 -48.032648,-4.9891172 -47.516324,-5.4945586 C -47,-6 -46.587666,-8 -46.587666,-8 L -45,-9 L -43.49214,-9 C -43.49214,-9 -42,-8 -42,-8 C -42,-8 -41.960097,-6.4232164 -41.480048,-5.4945586 C -41,-4.5659008 -41,-3.4824667 -41,-3.4824667 L -40.551391,-2 L -39.467956,-3 C -39.467956,-3 -40.544135,-4.1318016 -39,-4.5659008 C -37.455865,-5 -36.527207,-6 -36.527207,-6 L -34,-6 L -33,-5 L -33,-4 L -33,-2 L -34,-1 L -34,0 L -35,1.4703749 L -34,3 L -33,2 L -31,1 L -28,1.4703749 L -27,4.5659009 L -29.562273,6 L -31,8 L -31,8.5900847 L -27,9 L -26,10 L -25,11 L -25,13 C -25,13 -25.383313,13.528416 -26.466747,14 C -27.550181,14.471584 -29,15 -29,15 L -30,15.555018 L -31,15.555018 C -31,15.555018 -30,17 -30,17 L -28,18.495768 L -26,21 L -27,23 C -27,23 -27,22.551391 -29,23 C -31,23.448609 -32,23 -32,23 L -33,22 L -33.431681,24 L -32,27 L -31.574365,30 L -33.586457,31 L -36,29 L -38,28 L -39,27 L -39,29 L -38,32 L -38,34 L -40,35 C -40,35 -40.960097,35.185006 -41.480048,34.592503 C -42,34 -42.126965,33 -42.563482,33 C -43,33 -43,32 -44,31 C -45,30 -45,30 -45,30 L -46,32 L -46.587666,34.437727 C -46.587666,34.437727 -46,34.478839 -48,35 C -50,35.521161 -51,35.407497 -51,35 C -51,34.592503 -52,33 -52,32 C -52,31 -52,29 -52,29 L -54,30 L -56,32 L -59,32 L -58.505441,28 L -58,25.460701 L -61,26 L -64,26.544135 C -64,26.544135 -65,25.064087 -65,24.532044 C -65,24 -64,21.591294 -64,21.591294 C -64,21.591294 -63,22 -62,21 C -61,20 -60.517533,18 -60.517533,18 L -64,18 L -67,17 L -67,15 L -64,13 L -63.458283,11 C -63.458283,11 -65,9.1801693 -66,8.5900847 C -67,8 -66,6 -66,6 L -63,5.4945587 L -59,6 L -62,3 L -63,1 L -62.529625,-1 L -61,-2 L -58,-2 L -57,0.54171708 L -54.481258,0 z "
           id="path6385" />
        <path
           style="fill:url(#radialGradient4509);fill-opacity:1;fill-rule:evenodd;stroke:none;stroke-width:2.7361536;stroke-linecap:round;stroke-linejoin:round;stroke-miterlimit:4;stroke-dasharray:none;stroke-opacity:1"
           d="M -43.40625,-10.40625 C -43.448384,-10.397802 -43.490097,-10.387374 -43.53125,-10.375 L -43.65625,-10.375 L -45.5,-10.375 C -45.75229,-10.379975 -46.001041,-10.315083 -46.21875,-10.1875 C -46.21875,-10.1875 -46.527281,-9.9553146 -46.8125,-9.65625 C -47.097719,-9.3571854 -47.453852,-8.9304234 -47.78125,-8.3125 C -48.436046,-7.0766531 -49,-5.1340794 -49,-2.25 C -49.0597,-1.727328 -48.814442,-1.2167165 -48.369148,-0.93660347 C -47.923854,-0.65649042 -47.357396,-0.65649042 -46.912102,-0.93660347 C -46.466808,-1.2167165 -46.22155,-1.727328 -46.28125,-2.25 C -46.28125,-4.771651 -45.763011,-6.2399474 -45.34375,-7.03125 C -45.170402,-7.3584232 -45.054698,-7.5215503 -44.9375,-7.65625 L -43.90625,-7.65625 C -43.788946,-7.5216588 -43.642755,-7.3596634 -43.46875,-7.03125 C -43.049489,-6.2399475 -42.562499,-4.7716509 -42.5625,-2.25 C -42.5625,-1.4906085 -41.946892,-0.875 -41.1875,-0.875 C -40.428108,-0.875 -39.8125,-1.4906085 -39.8125,-2.25 C -39.812499,-5.1340795 -40.407704,-7.076653 -41.0625,-8.3125 C -41.389898,-8.9304235 -41.746031,-9.3571854 -42.03125,-9.65625 C -42.118571,-9.7478098 -42.136139,-9.7410614 -42.21875,-9.8125 C -42.228998,-9.8230842 -42.239416,-9.8335023 -42.25,-9.84375 C -42.271222,-9.8616083 -42.261484,-9.890222 -42.28125,-9.90625 C -42.347365,-9.9762744 -42.420688,-10.039123 -42.5,-10.09375 C -42.539847,-10.127356 -42.581582,-10.158657 -42.625,-10.1875 C -42.655379,-10.209612 -42.686655,-10.230463 -42.71875,-10.25 C -42.759325,-10.272949 -42.801046,-10.29381 -42.84375,-10.3125 C -42.884903,-10.324874 -42.926616,-10.335302 -42.96875,-10.34375 C -42.979166,-10.343869 -42.989584,-10.343869 -43,-10.34375 C -43.041153,-10.356124 -43.082866,-10.366552 -43.125,-10.375 C -43.217418,-10.39511 -43.311672,-10.405582 -43.40625,-10.40625 z "
           id="path25847" />
        <path
           style="fill:url(#radialGradient4511);fill-opacity:1;fill-rule:evenodd;stroke:none;stroke-width:2.7361536;stroke-linecap:round;stroke-linejoin:round;stroke-miterlimit:4;stroke-dasharray:none;stroke-opacity:1"
           d="M -53.375,-9 C -53.503807,-8.9866536 -53.630066,-8.9550887 -53.75,-8.90625 C -53.837382,-8.8732269 -53.921152,-8.8313417 -54,-8.78125 L -54.0625,-8.75 C -54.084001,-8.7298452 -54.104845,-8.709001 -54.125,-8.6875 L -55.78125,-7.90625 C -56.011803,-7.7954422 -56.206676,-7.6222218 -56.34375,-7.40625 C -56.34375,-7.40625 -56.520131,-7.1101007 -56.65625,-6.71875 C -56.792369,-6.3273993 -56.920472,-5.7638757 -56.96875,-5.0625 C -57.065307,-3.6597486 -56.8164,-1.6494775 -55.65625,0.96875 C -55.34559,1.6591059 -54.534106,1.9669102 -53.84375,1.65625 C -53.153394,1.3455898 -52.84559,0.53410594 -53.15625,-0.15625 C -54.166985,-2.4372776 -54.312787,-3.9628456 -54.25,-4.875 C -54.222833,-5.2696822 -54.14918,-5.5086956 -54.09375,-5.6875 L -53.1875,-6.125 C -53.033102,-6.0573624 -52.843706,-5.9951287 -52.5625,-5.78125 C -51.877669,-5.2603844 -50.823235,-4.1872773 -49.8125,-1.90625 C -49.642462,-1.4219821 -49.215699,-1.0736093 -48.707193,-1.0039712 C -48.198686,-0.93433301 -47.693976,-1.1551438 -47.400002,-1.575867 C -47.106029,-1.9965901 -47.072244,-2.5464525 -47.3125,-3 C -48.47265,-5.6182279 -49.803571,-7.1300796 -50.90625,-7.96875 C -51.457589,-8.3880852 -51.927059,-8.6344501 -52.3125,-8.78125 C -52.43488,-8.8278601 -52.453591,-8.8146778 -52.5625,-8.84375 C -52.572748,-8.8543342 -52.583166,-8.8647523 -52.59375,-8.875 C -52.803479,-8.9283374 -53.09375,-9 -53.09375,-9 C -53.135395,-9.0019043 -53.177105,-9.0019043 -53.21875,-9 C -53.270791,-9.0029764 -53.322959,-9.0029764 -53.375,-9 L -53.375,-9 z "
           id="path25849" />
        <path
           style="fill:url(#radialGradient4513);fill-opacity:1;fill-rule:evenodd;stroke:none;stroke-width:2.7361536;stroke-linecap:round;stroke-linejoin:round;stroke-miterlimit:4;stroke-dasharray:none;stroke-opacity:1"
           d="M -61.25,-3.375 C -61.366824,-3.3640186 -61.367063,-3.3319002 -61.46875,-3.3125 C -61.523716,-3.3020134 -61.54645,-3.3233791 -61.59375,-3.3125 C -61.689438,-3.3016229 -61.783711,-3.2806735 -61.875,-3.25 C -61.901421,-3.242082 -62.03125,-3.21875 -62.03125,-3.21875 C -62.130819,-3.177909 -62.225221,-3.1254632 -62.3125,-3.0625 C -62.333596,-3.0526171 -62.354436,-3.0421971 -62.375,-3.03125 C -62.375119,-3.0208337 -62.375119,-3.0104163 -62.375,-3 C -62.396096,-2.9901171 -62.416936,-2.9796971 -62.4375,-2.96875 C -62.492564,-2.9309528 -62.544787,-2.8891744 -62.59375,-2.84375 C -62.604697,-2.8231861 -62.615117,-2.802346 -62.625,-2.78125 C -62.670424,-2.7322874 -62.712203,-2.6800644 -62.75,-2.625 L -64,-1.03125 C -64.145256,-0.85015145 -64.242042,-0.63507035 -64.28125,-0.40625 C -64.28125,-0.40625 -64.346143,-0.038335959 -64.3125,0.375 C -64.278857,0.78833596 -64.176158,1.3408019 -63.9375,2 C -63.460185,3.3183963 -62.424027,5.0416913 -60.3125,6.90625 C -59.960205,7.29151 -59.419379,7.4427184 -58.918359,7.2960349 C -58.417339,7.1493514 -58.043455,6.7303435 -57.954561,6.2159168 C -57.865668,5.7014901 -58.077258,5.1813111 -58.5,4.875 C -60.323453,3.2648219 -61.035837,1.9442379 -61.34375,1.09375 C -61.48197,0.71197143 -61.51115,0.43755342 -61.53125,0.25 L -60.84375,-0.625 C -60.679162,-0.63201538 -60.489609,-0.62978214 -60.15625,-0.5625 C -59.339018,-0.39755748 -57.979703,0.10857215 -56.15625,1.71875 C -55.586706,2.2192581 -54.719258,2.1632936 -54.21875,1.59375 C -53.718242,1.0242064 -53.774206,0.15675805 -54.34375,-0.34375 C -56.455278,-2.2083089 -58.276223,-2.9777754 -59.625,-3.25 C -60.299389,-3.3861123 -60.839538,-3.4135831 -61.25,-3.375 z "
           id="path25851" />
        <path
           style="fill:url(#radialGradient4515);fill-opacity:1;fill-rule:evenodd;stroke:none;stroke-width:2.7361536;stroke-linecap:round;stroke-linejoin:round;stroke-miterlimit:4;stroke-dasharray:none;stroke-opacity:1"
           d="M -62.96875,3.65625 C -63.958748,3.6281031 -64.803394,3.7298115 -65.46875,3.90625 C -66.134106,4.0826885 -66.616441,4.316293 -66.96875,4.53125 C -67.109674,4.6172328 -67.116055,4.6378357 -67.21875,4.71875 C -67.345657,4.7836678 -67.461639,4.8680187 -67.5625,4.96875 C -67.564164,4.9703284 -67.59375,5 -67.59375,5 C -67.615251,5.0201548 -67.636095,5.040999 -67.65625,5.0625 C -67.666834,5.0727477 -67.677252,5.0831658 -67.6875,5.09375 C -67.709001,5.1139048 -67.729845,5.134749 -67.75,5.15625 C -67.760947,5.1768139 -67.771367,5.197654 -67.78125,5.21875 C -67.792197,5.2393139 -67.802617,5.260154 -67.8125,5.28125 C -67.823447,5.3018139 -67.833867,5.322654 -67.84375,5.34375 C -67.854697,5.3643139 -67.865117,5.385154 -67.875,5.40625 C -67.885947,5.4268139 -67.896367,5.447654 -67.90625,5.46875 C -67.917197,5.4893139 -67.927617,5.510154 -67.9375,5.53125 C -67.937976,5.5520806 -67.937976,5.5729194 -67.9375,5.59375 C -67.937619,5.6041663 -67.937619,5.6145837 -67.9375,5.625 C -67.966152,5.7061815 -67.987078,5.789886 -68,5.875 L -68.5,7.8125 C -68.558514,8.0379315 -68.558514,8.2745685 -68.5,8.5 C -68.5,8.5 -68.385965,8.8554745 -68.1875,9.21875 C -67.989035,9.5820255 -67.673652,10.03472 -67.1875,10.53125 C -66.215197,11.524311 -64.578887,12.65262 -61.90625,13.40625 C -61.172747,13.613357 -60.410232,13.186628 -60.203125,12.453125 C -59.996018,11.719622 -60.422747,10.957107 -61.15625,10.75 C -63.445335,10.104524 -64.639643,9.2483878 -65.25,8.625 C -65.516751,8.3525536 -65.626095,8.1572956 -65.71875,8 L -65.4375,6.8125 C -65.288611,6.7301703 -65.090097,6.6214366 -64.75,6.53125 C -63.942079,6.3170064 -62.539085,6.1982732 -60.25,6.84375 C -59.76925,7.0174045 -59.231791,6.9085992 -58.856438,6.5616314 C -58.481085,6.2146635 -58.330438,5.6874013 -58.465831,5.1945061 C -58.601223,4.7016108 -59.000074,4.3252888 -59.5,4.21875 C -60.836319,3.8419344 -61.978752,3.6843969 -62.96875,3.65625 z "
           id="path25853" />
        <path
           style="fill:url(#radialGradient4517);fill-opacity:1;fill-rule:evenodd;stroke:none;stroke-width:2.7361536;stroke-linecap:round;stroke-linejoin:round;stroke-miterlimit:4;stroke-dasharray:none;stroke-opacity:1"
           d="M -61.84375,10.65625 C -61.875366,10.665534 -61.906636,10.675958 -61.9375,10.6875 C -64.663542,11.193343 -66.384029,12.128899 -67.4375,13.03125 C -67.964235,13.482425 -68.33393,13.905142 -68.5625,14.25 C -68.650763,14.383168 -68.629399,14.418078 -68.6875,14.53125 C -68.69537,14.54658 -68.711485,14.547949 -68.71875,14.5625 C -68.817354,14.69401 -68.891455,14.842211 -68.9375,15 C -68.937976,15.020831 -68.937976,15.041669 -68.9375,15.0625 C -68.948084,15.072748 -68.958502,15.083166 -68.96875,15.09375 C -68.969226,15.114581 -68.969226,15.135419 -68.96875,15.15625 C -68.979697,15.176814 -68.990117,15.197654 -69,15.21875 C -69.000476,15.239581 -69.000476,15.260419 -69,15.28125 C -69.000476,15.302081 -69.000476,15.322919 -69,15.34375 C -69.000476,15.364581 -69.000476,15.385419 -69,15.40625 C -69.001071,15.437491 -69.001071,15.468759 -69,15.5 C -69.000476,15.520831 -69.000476,15.541669 -69,15.5625 C -69.000476,15.583331 -69.000476,15.604169 -69,15.625 C -68.991552,15.667134 -68.981124,15.708847 -68.96875,15.75 C -68.952464,15.813925 -68.931576,15.876588 -68.90625,15.9375 L -68.59375,17.875 C -68.554542,18.10382 -68.457756,18.318901 -68.3125,18.5 C -68.3125,18.5 -68.081929,18.785712 -67.75,19.03125 C -67.418071,19.276788 -66.928492,19.576061 -66.28125,19.8125 C -64.986765,20.285377 -63.038541,20.537094 -60.3125,20.03125 C -59.813712,19.961666 -59.393474,19.623694 -59.218531,19.151437 C -59.043588,18.67918 -59.142227,18.148995 -59.475309,17.771254 C -59.808391,17.393513 -60.32206,17.229291 -60.8125,17.34375 C -63.145174,17.776601 -64.554708,17.538238 -65.34375,17.25 C -65.675664,17.128751 -65.857422,17.002606 -66,16.90625 L -66.1875,15.6875 C -66.082049,15.540805 -65.936722,15.365239 -65.65625,15.125 C -64.99921,14.562212 -63.770174,13.80785 -61.4375,13.375 C -60.686738,13.262817 -60.169067,12.563262 -60.28125,11.8125 C -60.393433,11.061738 -61.092988,10.544067 -61.84375,10.65625 z "
           id="path25855" />
        <path
           style="fill:url(#radialGradient4519);fill-opacity:1;fill-rule:evenodd;stroke:none;stroke-width:2.7361536;stroke-linecap:round;stroke-linejoin:round;stroke-miterlimit:4;stroke-dasharray:none;stroke-opacity:1"
           d="M -61,17.65625 C -61.261609,17.679082 -61.511122,17.776717 -61.71875,17.9375 C -63.978688,19.602785 -65.133085,21.228275 -65.71875,22.5 C -66.011582,23.135862 -66.150942,23.684702 -66.21875,24.09375 C -66.232779,24.178381 -66.210944,24.171834 -66.21875,24.25 C -66.222003,24.282569 -66.247615,24.281762 -66.25,24.3125 C -66.250476,24.333331 -66.250476,24.354169 -66.25,24.375 C -66.287364,24.52828 -66.297937,24.686867 -66.28125,24.84375 C -66.282321,24.874991 -66.282321,24.906259 -66.28125,24.9375 C -66.281726,24.958331 -66.281726,24.979169 -66.28125,25 C -66.271367,25.021096 -66.260947,25.041936 -66.25,25.0625 C -66.250476,25.083331 -66.250476,25.104169 -66.25,25.125 C -66.240117,25.146096 -66.229697,25.166936 -66.21875,25.1875 C -66.219226,25.208331 -66.219226,25.229169 -66.21875,25.25 C -66.208867,25.271096 -66.198447,25.291936 -66.1875,25.3125 C -66.177617,25.333596 -66.167197,25.354436 -66.15625,25.375 C -66.146367,25.396096 -66.135947,25.416936 -66.125,25.4375 C -66.115117,25.458596 -66.104697,25.479436 -66.09375,25.5 C -66.083502,25.510584 -66.073084,25.521002 -66.0625,25.53125 C -66.042963,25.563345 -66.022112,25.594621 -66,25.625 L -64.84375,27.375 C -64.702318,27.579451 -64.507854,27.741504 -64.28125,27.84375 C -64.28125,27.84375 -63.936493,28.017753 -63.53125,28.09375 C -63.126007,28.169747 -62.558639,28.198799 -61.875,28.125 C -60.507723,27.977403 -58.634937,27.352787 -56.375,25.6875 C -55.932153,25.417444 -55.680094,24.92019 -55.724068,24.403363 C -55.768042,23.886536 -56.100487,23.439014 -56.582593,23.247657 C -57.064698,23.056299 -57.613558,23.154014 -58,23.5 C -59.947845,24.935314 -61.329555,25.317008 -62.15625,25.40625 C -62.493052,25.442608 -62.680127,25.428318 -62.84375,25.40625 L -63.5,24.4375 C -63.464425,24.252888 -63.418515,23.990916 -63.25,23.625 C -62.873801,22.808112 -62.041594,21.560312 -60.09375,20.125 C -59.601519,19.764709 -59.407255,19.122085 -59.617463,18.549449 C -59.827672,17.976812 -60.39157,17.612501 -61,17.65625 z "
           id="path25857" />
        <path
           style="fill:url(#radialGradient4521);fill-opacity:1;fill-rule:evenodd;stroke:none;stroke-width:2.7361536;stroke-linecap:round;stroke-linejoin:round;stroke-miterlimit:4;stroke-dasharray:none;stroke-opacity:1"
           d="M -57.59375,23.28125 C -58.045243,23.329678 -58.443296,23.598949 -58.65625,24 C -60.02977,26.503574 -60.417518,28.468908 -60.4375,29.875 C -60.447491,30.578046 -60.384226,31.129738 -60.28125,31.53125 C -60.237991,31.699922 -60.20424,31.719186 -60.15625,31.84375 C -60.148878,31.896396 -60.138443,31.948568 -60.125,32 C -60.101975,32.08619 -60.070576,32.169922 -60.03125,32.25 C -60.030454,32.251639 -60,32.28125 -60,32.28125 C -59.990716,32.312866 -59.980292,32.344136 -59.96875,32.375 C -59.958502,32.385584 -59.948084,32.396002 -59.9375,32.40625 C -59.917345,32.427751 -59.896501,32.448595 -59.875,32.46875 C -59.864752,32.479334 -59.854334,32.489752 -59.84375,32.5 C -59.823595,32.521501 -59.802751,32.542345 -59.78125,32.5625 C -59.771002,32.573084 -59.760584,32.583502 -59.75,32.59375 C -59.729845,32.615251 -59.709001,32.636095 -59.6875,32.65625 C -59.677252,32.666834 -59.666834,32.677252 -59.65625,32.6875 C -59.636095,32.709001 -59.615251,32.729845 -59.59375,32.75 C -59.583502,32.760584 -59.573084,32.771002 -59.5625,32.78125 C -59.541936,32.792197 -59.521096,32.802617 -59.5,32.8125 C -59.439989,32.848499 -59.377306,32.879841 -59.3125,32.90625 L -57.65625,33.9375 C -57.429472,34.070798 -57.169076,34.135897 -56.90625,34.125 C -56.90625,34.125 -56.5221,34.11116 -56.125,34 C -55.7279,33.88884 -55.210361,33.680546 -54.625,33.3125 C -53.454277,32.576408 -52.029768,31.191076 -50.65625,28.6875 C -50.293813,28.023032 -50.538657,27.190562 -51.203125,26.828125 C -51.867593,26.465688 -52.700063,26.710532 -53.0625,27.375 C -54.257359,29.552926 -55.371171,30.545678 -56.09375,31 C -56.385037,31.183147 -56.560441,31.258903 -56.71875,31.3125 L -57.625,30.75 C -57.665853,30.5663 -57.724418,30.3051 -57.71875,29.90625 C -57.705752,28.991629 -57.44486,27.490423 -56.25,25.3125 C -55.998023,24.86514 -56.017717,24.314364 -56.301001,23.886143 C -56.584286,23.457922 -57.08347,23.224348 -57.59375,23.28125 z "
           id="path25859" />
        <path
           style="fill:url(#radialGradient4523);fill-opacity:1;fill-rule:evenodd;stroke:none;stroke-width:2.7361536;stroke-linecap:round;stroke-linejoin:round;stroke-miterlimit:4;stroke-dasharray:none;stroke-opacity:1"
           d="M -51.78125,27.125 C -52.433702,27.210924 -52.932556,27.74916 -52.96875,28.40625 C -53.207625,31.279554 -52.798933,33.242445 -52.25,34.53125 C -51.975534,35.175653 -51.664614,35.645915 -51.40625,35.96875 C -51.332492,36.060913 -51.321567,36.050425 -51.25,36.125 C -51.220283,36.157747 -51.188997,36.189033 -51.15625,36.21875 C -51.143647,36.230885 -51.136792,36.238903 -51.125,36.25 C -51.055018,36.354817 -50.970889,36.449462 -50.875,36.53125 C -50.844621,36.553362 -50.813345,36.574213 -50.78125,36.59375 C -50.770834,36.593869 -50.760416,36.593869 -50.75,36.59375 C -50.719621,36.615862 -50.688345,36.636713 -50.65625,36.65625 C -50.645834,36.656369 -50.635416,36.656369 -50.625,36.65625 C -50.594621,36.678362 -50.563345,36.699213 -50.53125,36.71875 C -50.520834,36.718869 -50.510416,36.718869 -50.5,36.71875 C -50.489584,36.718869 -50.479166,36.718869 -50.46875,36.71875 C -50.397695,36.74562 -50.324525,36.766526 -50.25,36.78125 C -50.219136,36.792792 -50.187866,36.803216 -50.15625,36.8125 C -50.135419,36.812976 -50.114581,36.812976 -50.09375,36.8125 L -49.96875,36.8125 L -48.03125,37 C -47.771472,37.020399 -47.51127,36.96619 -47.28125,36.84375 C -47.28125,36.84375 -46.935122,36.679089 -46.625,36.40625 C -46.314878,36.133411 -45.940623,35.711777 -45.5625,35.125 C -44.806253,33.951446 -44.082623,32.092056 -43.84375,29.21875 C -43.762837,28.714362 -43.969646,28.206907 -44.380071,27.90276 C -44.790496,27.598613 -45.336173,27.548436 -45.795181,27.772635 C -46.254189,27.996834 -46.550073,28.458065 -46.5625,28.96875 C -46.771324,31.480608 -47.393389,32.90888 -47.875,33.65625 C -48.073486,33.964263 -48.216901,34.096164 -48.34375,34.21875 L -49.375,34.125 C -49.481467,33.979065 -49.603546,33.8126 -49.75,33.46875 C -50.103151,32.639608 -50.458826,31.136854 -50.25,28.625 C -50.206529,28.209731 -50.355058,27.797342 -50.65333,27.505157 C -50.951602,27.212972 -51.366966,27.072977 -51.78125,27.125 z "
           id="path25861" />
        <path
           style="fill:url(#radialGradient4525);fill-opacity:1;fill-rule:evenodd;stroke:none;stroke-width:2.7361536;stroke-linecap:round;stroke-linejoin:round;stroke-miterlimit:4;stroke-dasharray:none;stroke-opacity:1"
           d="M -38.96875,26.0625 C -39.405152,26.082813 -39.805616,26.310306 -40.046523,26.674756 C -40.287431,27.039205 -40.339813,27.496787 -40.1875,27.90625 C -39.368975,30.272887 -39.362017,31.816535 -39.5,32.71875 C -39.559539,33.108048 -39.649137,33.327684 -39.71875,33.5 L -40.71875,33.875 C -40.867216,33.791732 -41.02705,33.700122 -41.28125,33.46875 C -41.922881,32.884739 -42.837728,31.710385 -43.65625,29.34375 C -43.897875,28.627506 -44.674381,28.24275 -45.390625,28.484375 C -46.106869,28.726 -46.491625,29.502506 -46.25,30.21875 C -45.311653,32.93184 -44.151482,34.534448 -43.125,35.46875 C -42.611759,35.935901 -42.120712,36.256446 -41.75,36.4375 C -41.639349,36.491541 -41.631969,36.462455 -41.53125,36.5 C -41.487434,36.516333 -41.476767,36.517997 -41.4375,36.53125 C -41.427252,36.541834 -41.416834,36.552252 -41.40625,36.5625 C -41.241668,36.650249 -41.060882,36.703421 -40.875,36.71875 C -40.791841,36.726379 -40.708159,36.726379 -40.625,36.71875 C -40.529312,36.707873 -40.435039,36.686923 -40.34375,36.65625 C -40.312134,36.646966 -40.280864,36.636542 -40.25,36.625 L -39.96875,36.5 L -38.25,35.84375 C -38.015768,35.755014 -37.810389,35.603683 -37.65625,35.40625 C -37.65625,35.40625 -37.418447,35.128354 -37.25,34.75 C -37.081553,34.371646 -36.918736,33.819634 -36.8125,33.125 C -36.600028,31.735732 -36.68665,29.713091 -37.625,27 C -37.815609,26.424202 -38.362549,26.042616 -38.96875,26.0625 z "
           id="path25863" />
        <path
           style="fill:url(#radialGradient4527);fill-opacity:1;fill-rule:evenodd;stroke:none;stroke-width:2.7361536;stroke-linecap:round;stroke-linejoin:round;stroke-miterlimit:4;stroke-dasharray:none;stroke-opacity:1"
           d="M -34.59375,21.28125 C -35.09865,21.364439 -35.514929,21.722414 -35.672793,22.209162 C -35.830657,22.695909 -35.703717,23.230064 -35.34375,23.59375 C -33.658824,25.366902 -33.01805,26.74767 -32.78125,27.625 C -32.674483,28.020565 -32.660553,28.279977 -32.65625,28.46875 L -33.40625,29.25 C -33.570561,29.243496 -33.784246,29.258107 -34.125,29.15625 C -34.927091,28.916492 -36.221329,28.273153 -37.90625,26.5 C -38.223483,26.080341 -38.753229,25.879731 -39.268864,25.98399 C -39.7845,26.088249 -40.194694,26.47891 -40.323967,26.98885 C -40.45324,27.498789 -40.278694,28.037686 -39.875,28.375 C -37.927692,30.42428 -36.225721,31.386839 -34.90625,31.78125 C -34.246515,31.978456 -33.693509,32.032039 -33.28125,32.03125 C -33.154262,32.031007 -33.140823,32.011349 -33.03125,32 C -32.977242,31.994406 -32.952523,32.006487 -32.90625,32 C -32.757993,32.003012 -32.610233,31.981904 -32.46875,31.9375 C -32.415434,31.919892 -32.363252,31.89902 -32.3125,31.875 C -32.202084,31.836485 -32.097061,31.783974 -32,31.71875 C -31.943789,31.670965 -31.891535,31.618711 -31.84375,31.5625 C -31.811003,31.532783 -31.779717,31.501497 -31.75,31.46875 C -31.704576,31.419787 -31.662797,31.367564 -31.625,31.3125 L -30.3125,29.96875 C -30.155993,29.790977 -30.048314,29.57562 -30,29.34375 C -30,29.34375 -29.906967,28.977227 -29.90625,28.5625 C -29.905533,28.147773 -29.973343,27.583911 -30.15625,26.90625 C -30.522065,25.550928 -31.396437,23.768028 -33.34375,21.71875 C -33.657378,21.367543 -34.12956,21.20228 -34.59375,21.28125 z "
           id="path25865" />
        <path
           style="fill:url(#radialGradient4529);fill-opacity:1;fill-rule:evenodd;stroke:none;stroke-width:2.7361536;stroke-linecap:round;stroke-linejoin:round;stroke-miterlimit:4;stroke-dasharray:none;stroke-opacity:1"
           d="M -31.875,14.84375 C -32.535879,14.855068 -33.094178,15.337218 -33.201597,15.989406 C -33.309016,16.641594 -32.934839,17.277329 -32.3125,17.5 C -30.084098,18.353542 -28.964831,19.320356 -28.40625,20 C -28.148317,20.313835 -28.045919,20.552538 -27.96875,20.71875 L -28.375,21.8125 C -28.528925,21.880678 -28.714081,21.972236 -29.0625,22.03125 C -29.883614,22.170327 -31.30285,22.166042 -33.53125,21.3125 C -34.238865,21.036358 -35.036358,21.386135 -35.3125,22.09375 C -35.588642,22.801365 -35.238865,23.598858 -34.53125,23.875 C -31.93268,24.870329 -29.9501,24.979732 -28.59375,24.75 C -27.915575,24.635134 -27.401284,24.432448 -27.03125,24.25 C -26.902648,24.186592 -26.913497,24.157961 -26.8125,24.09375 C -26.792491,24.081029 -26.768497,24.10593 -26.75,24.09375 C -26.661282,24.050823 -26.577462,23.998436 -26.5,23.9375 C -26.484021,23.925325 -26.410924,23.878709 -26.40625,23.875 C -26.395666,23.864752 -26.385248,23.854334 -26.375,23.84375 C -26.353499,23.823595 -26.332655,23.802751 -26.3125,23.78125 C -26.301916,23.771002 -26.291498,23.760584 -26.28125,23.75 C -26.259749,23.729845 -26.238905,23.709001 -26.21875,23.6875 C -26.207803,23.666936 -26.197383,23.646096 -26.1875,23.625 C -26.165999,23.604845 -26.145155,23.584001 -26.125,23.5625 C -26.059776,23.465439 -26.007265,23.360416 -25.96875,23.25 L -25.9375,23.1875 C -25.924057,23.136068 -25.913622,23.083896 -25.90625,23.03125 L -25.21875,21.125 C -25.144404,20.892494 -25.133614,20.644331 -25.1875,20.40625 C -25.1875,20.40625 -25.270381,20.066452 -25.4375,19.6875 C -25.604619,19.308548 -25.870408,18.819158 -26.3125,18.28125 C -27.196683,17.205435 -28.745178,15.964077 -31.34375,14.96875 C -31.510642,14.89183 -31.691319,14.849318 -31.875,14.84375 L -31.875,14.84375 z "
           id="path25867" />
        <path
           style="fill:url(#radialGradient4531);fill-opacity:1;fill-rule:evenodd;stroke:none;stroke-width:2.7361536;stroke-linecap:round;stroke-linejoin:round;stroke-miterlimit:4;stroke-dasharray:none;stroke-opacity:1"
           d="M -32.09375,7.90625 C -32.853142,7.9752856 -33.412786,8.6468585 -33.34375,9.40625 C -33.274714,10.165642 -32.603142,10.725286 -31.84375,10.65625 C -29.484826,10.439063 -28.108224,10.826901 -27.34375,11.1875 C -27.02164,11.339438 -26.85382,11.483781 -26.71875,11.59375 L -26.59375,12.8125 C -26.710187,12.947838 -26.859304,13.100581 -27.15625,13.3125 C -27.85464,13.810914 -29.172327,14.470317 -31.53125,14.6875 C -32.041935,14.699927 -32.503166,14.995811 -32.727365,15.454819 C -32.951564,15.913827 -32.901387,16.459504 -32.59724,16.869929 C -32.293093,17.280354 -31.785638,17.487163 -31.28125,17.40625 C -28.522964,17.152298 -26.720703,16.366762 -25.59375,15.5625 C -25.030273,15.160369 -24.632206,14.761271 -24.375,14.4375 C -24.228025,14.252488 -24.198085,14.189475 -24.125,14.0625 C -24.065862,13.994889 -24.013526,13.921619 -23.96875,13.84375 C -23.966254,13.838846 -23.9375,13.78125 -23.9375,13.78125 C -23.91063,13.710195 -23.889724,13.637025 -23.875,13.5625 C -23.864053,13.541936 -23.853633,13.521096 -23.84375,13.5 C -23.821373,13.397378 -23.810887,13.292521 -23.8125,13.1875 C -23.811429,13.156259 -23.811429,13.124991 -23.8125,13.09375 L -23.84375,12.84375 L -24,10.84375 C -24.019389,10.59614 -24.105811,10.358478 -24.25,10.15625 C -24.25,10.15625 -24.472124,9.8677295 -24.78125,9.59375 C -25.090376,9.3197705 -25.532205,8.9818596 -26.15625,8.6875 C -27.404339,8.0987807 -29.335465,7.6522941 -32.09375,7.90625 z "
           id="path25869" />
        <path
           style="fill:url(#radialGradient4533);fill-opacity:1;fill-rule:evenodd;stroke:none;stroke-width:2.7361536;stroke-linecap:round;stroke-linejoin:round;stroke-miterlimit:4;stroke-dasharray:none;stroke-opacity:1"
           d="M -29.875,-0.5625 C -31.249745,-0.54086362 -33.171193,-0.10916633 -35.5625,1.34375 C -36.209709,1.7407047 -36.41258,2.5871663 -36.015625,3.234375 C -35.61867,3.8815837 -34.772209,4.0844547 -34.125,3.6875 C -32.067743,2.4375471 -30.674244,2.1693207 -29.84375,2.15625 C -29.506151,2.1509367 -29.317912,2.1817369 -29.15625,2.21875 L -28.5625,3.28125 C -28.61318,3.4613029 -28.709204,3.6841774 -28.90625,4.03125 C -29.347329,4.8081588 -30.286496,5.9688021 -32.34375,7.21875 C -32.990959,7.6157047 -33.19383,8.4621663 -32.796875,9.109375 C -32.39992,9.7565837 -31.553459,9.9594547 -30.90625,9.5625 C -28.514943,8.1095884 -27.221352,6.590534 -26.53125,5.375 C -26.186199,4.767233 -25.976579,4.2456234 -25.875,3.84375 C -25.834464,3.6833809 -25.861346,3.6594664 -25.84375,3.53125 C -25.843274,3.5104194 -25.843274,3.4895806 -25.84375,3.46875 C -25.840791,3.44427 -25.814769,3.4278299 -25.8125,3.40625 C -25.775136,3.2529703 -25.764563,3.0943831 -25.78125,2.9375 C -25.780774,2.9166694 -25.780774,2.8958306 -25.78125,2.875 C -25.8015,2.7338986 -25.843675,2.5968283 -25.90625,2.46875 C -25.932659,2.4039445 -25.964001,2.3412605 -26,2.28125 L -26.03125,2.25 C -26.041133,2.228904 -26.051553,2.2080639 -26.0625,2.1875 L -27,0.4375 C -27.124042,0.21431419 -27.308064,0.030292452 -27.53125,-0.09375 C -27.53125,-0.09375 -27.853323,-0.26233041 -28.25,-0.375 C -28.646677,-0.48766959 -29.187628,-0.57331819 -29.875,-0.5625 z "
           id="path25871" />
        <path
           style="fill:url(#radialGradient4535);fill-opacity:1;fill-rule:evenodd;stroke:none;stroke-width:2.7361536;stroke-linecap:round;stroke-linejoin:round;stroke-miterlimit:4;stroke-dasharray:none;stroke-opacity:1"
           d="M -35.03125,-7.53125 C -35.03125,-7.53125 -35.406972,-7.5744495 -35.8125,-7.5 C -36.218028,-7.4255505 -36.76003,-7.2511472 -37.375,-6.9375 C -38.604939,-6.3102057 -40.141896,-5.0574045 -41.71875,-2.6875 C -42.027503,-2.280529 -42.083827,-1.735452 -41.864815,-1.2739461 C -41.645804,-0.81244023 -41.187937,-0.51137699 -40.677424,-0.49319564 C -40.166911,-0.4750143 -39.688787,-0.74274327 -39.4375,-1.1875 C -38.068034,-3.2457141 -36.879747,-4.1150636 -36.125,-4.5 C -35.821406,-4.654839 -35.630139,-4.6799769 -35.46875,-4.71875 L -34.59375,-4.09375 C -34.568259,-3.9065113 -34.555139,-3.6461097 -34.59375,-3.25 C -34.682411,-2.3404148 -35.068031,-0.87071158 -36.4375,1.1875 C -36.860343,1.8174498 -36.69245,2.670907 -36.0625,3.09375 C -35.43255,3.516593 -34.579093,3.3486998 -34.15625,2.71875 C -32.579392,0.34884781 -32.011393,-1.6007286 -31.875,-3 C -31.806803,-3.6996357 -31.837024,-4.2474433 -31.90625,-4.65625 C -31.923896,-4.7604556 -31.945915,-4.7526563 -31.96875,-4.84375 C -31.974807,-4.9068989 -31.985249,-4.96955 -32,-5.03125 C -32.008589,-5.1374956 -32.029565,-5.2423735 -32.0625,-5.34375 C -32.072383,-5.364846 -32.082803,-5.3856861 -32.09375,-5.40625 C -32.121493,-5.4603587 -32.152813,-5.5125578 -32.1875,-5.5625 C -32.196784,-5.5941161 -32.207208,-5.6253865 -32.21875,-5.65625 C -32.238905,-5.677751 -32.259749,-5.6985952 -32.28125,-5.71875 C -32.291133,-5.739846 -32.301553,-5.7606861 -32.3125,-5.78125 C -32.332655,-5.802751 -32.353499,-5.8235952 -32.375,-5.84375 C -32.385248,-5.8543342 -32.395666,-5.8647523 -32.40625,-5.875 C -32.426405,-5.896501 -32.447249,-5.9173452 -32.46875,-5.9375 C -32.478998,-5.9480842 -32.489416,-5.9585023 -32.5,-5.96875 C -32.540575,-5.9916991 -32.582296,-6.0125597 -32.625,-6.03125 L -32.75,-6.125 C -32.760416,-6.125119 -32.770834,-6.125119 -32.78125,-6.125 L -34.3125,-7.28125 C -34.523622,-7.4308742 -34.772846,-7.5175609 -35.03125,-7.53125 z "
           id="path25873" />
        <path
           transform="matrix(1.66537,0,0,1.925174,-77.05279,-33.33754)"
           sodipodi:open="true"
           sodipodi:end="6.2749955"
           sodipodi:start="0"
           d="M 24.29988,24.377268 A 5.9588876,5.5719466 0 1 1 24.29968,24.331635"
           sodipodi:ry="5.5719466"
           sodipodi:rx="5.9588876"
           sodipodi:cy="24.377268"
           sodipodi:cx="18.340992"
           id="path25875"
           style="fill:url(#radialGradient4537);fill-opacity:1;fill-rule:evenodd;stroke:#d36964;stroke-width:1.73318982;stroke-linecap:round;stroke-linejoin:round;stroke-miterlimit:4;stroke-dasharray:none;stroke-dashoffset:0;stroke-opacity:1"
           sodipodi:type="arc" />
        <path
           sodipodi:type="arc"
           style="fill:url(#radialGradient4539);fill-opacity:1;fill-rule:evenodd;stroke:#d36964;stroke-width:1.73318982;stroke-linecap:round;stroke-linejoin:round;stroke-miterlimit:4;stroke-dasharray:none;stroke-dashoffset:0;stroke-opacity:1"
           id="path25877"
           sodipodi:cx="18.340992"
           sodipodi:cy="24.377268"
           sodipodi:rx="5.9588876"
           sodipodi:ry="5.5719466"
           d="M 24.29988,24.377268 A 5.9588876,5.5719466 0 1 1 24.29968,24.331635"
           sodipodi:start="0"
           sodipodi:end="6.2749955"
           sodipodi:open="true"
           transform="matrix(0.804706,0,0,0.959439,-61.12127,-9.977006)" />
      </g>
      <path
         inkscape:export-ydpi="123.63788"
         inkscape:export-xdpi="123.63788"
         inkscape:export-filename="Z:\Visual Studio 2008\Projects\GameLoader 2008\Resources\Inkscape\Icons\Profile11+.png"
         sodipodi:open="true"
         sodipodi:end="6.2749955"
         sodipodi:start="0"
         d="M -10.834341,43.337364 A 23.293833,3.637243 0 1 1 -10.835122,43.307576"
         sodipodi:ry="3.637243"
         sodipodi:rx="23.293833"
         sodipodi:cy="43.337364"
         sodipodi:cx="-34.128174"
         id="path3317"
         style="opacity:0.70070424;fill:url(#radialGradient4541);fill-opacity:1;fill-rule:evenodd;stroke:#969696;stroke-width:0;stroke-linecap:round;stroke-linejoin:round;stroke-miterlimit:4;stroke-dasharray:none;stroke-dashoffset:0;stroke-opacity:1"
         sodipodi:type="arc" />
    </g>
  </g>
</svg>
